^C:\USERS\0109835\DOCUMENTS\VISUAL STUDIO 2010\PROJECTS\STACKQUEUE EXERCISE\STACKQUEUE EXERCISE\STACKQUEUE EXERCISE.CPP|C:\USERS\0109835\DOCUMENTS\VISUAL STUDIO 2010\PROJECTS\STACKQUEUE EXERCISE\STACKQUEUE EXERCISE\STDAFX.CPP
C:\USERS\0109835\DOCUMENTS\VISUAL STUDIO 2010\PROJECTS\STACKQUEUE EXERCISE\STACKQUEUE EXERCISE\DEBUG\STDAFX.OBJ
^C:\USERS\0109835\DOCUMENTS\VISUAL STUDIO 2010\PROJECTS\STACKQUEUE EXERCISE\STACKQUEUE EXERCISE\STACKQUEUE EXERCISE.CPP
C:\USERS\0109835\DOCUMENTS\VISUAL STUDIO 2010\PROJECTS\STACKQUEUE EXERCISE\STACKQUEUE EXERCISE\DEBUG\VC100.PDB
C:\USERS\0109835\DOCUMENTS\VISUAL STUDIO 2010\PROJECTS\STACKQUEUE EXERCISE\STACKQUEUE EXERCISE\DEBUG\STACKQUEUE EXERCISE.OBJ
^C:\USERS\0109835\DOCUMENTS\VISUAL STUDIO 2010\PROJECTS\STACKQUEUE EXERCISE\STACKQUEUE EXERCISE\STDAFX.CPP
C:\USERS\0109835\DOCUMENTS\VISUAL STUDIO 2010\PROJECTS\STACKQUEUE EXERCISE\STACKQUEUE EXERCISE\DEBUG\VC100.PDB
^C:\USERS\SEAN-LI MURMANN\GOOGLE DRIVE\KDU\SEMESTER 3\DATASTRUCTURES & ALGORITHMS\WEEK 2 (STACKS,QUEUES)\STACKQUEUE EXERCISE\STACKQUEUE EXERCISE\STACKQUEUE EXERCISE.CPP|C:\USERS\SEAN-LI MURMANN\GOOGLE DRIVE\KDU\SEMESTER 3\DATASTRUCTURES & ALGORITHMS\WEEK 2 (STACKS,QUEUES)\STACKQUEUE EXERCISE\STACKQUEUE EXERCISE\STDAFX.CPP
C:\USERS\SEAN-LI MURMANN\GOOGLE DRIVE\KDU\SEMESTER 3\DATASTRUCTURES & ALGORITHMS\WEEK 2 (STACKS,QUEUES)\STACKQUEUE EXERCISE\STACKQUEUE EXERCISE\DEBUG\STACKQUEUE EXERCISE.OBJ
C:\USERS\SEAN-LI MURMANN\GOOGLE DRIVE\KDU\SEMESTER 3\DATASTRUCTURES & ALGORITHMS\WEEK 2 (STACKS,QUEUES)\STACKQUEUE EXERCISE\STACKQUEUE EXERCISE\DEBUG\STDAFX.OBJ
^C:\USERS\SEAN-LI MURMANN\GOOGLE DRIVE\KDU\SEMESTER 3\DATASTRUCTURES & ALGORITHMS\WEEK 2 (STACKS,QUEUES)\STACKQUEUE EXERCISE\STACKQUEUE EXERCISE\STACKQUEUE EXERCISE.CPP
C:\USERS\SEAN-LI MURMANN\GOOGLE DRIVE\KDU\SEMESTER 3\DATASTRUCTURES & ALGORITHMS\WEEK 2 (STACKS,QUEUES)\STACKQUEUE EXERCISE\STACKQUEUE EXERCISE\DEBUG\VC100.PDB
^C:\USERS\SEAN-LI MURMANN\GOOGLE DRIVE\KDU\SEMESTER 3\DATASTRUCTURES & ALGORITHMS\WEEK 2 (STACKS,QUEUES)\STACKQUEUE EXERCISE\STACKQUEUE EXERCISE\STDAFX.CPP
C:\USERS\SEAN-LI MURMANN\GOOGLE DRIVE\KDU\SEMESTER 3\DATASTRUCTURES & ALGORITHMS\WEEK 2 (STACKS,QUEUES)\STACKQUEUE EXERCISE\STACKQUEUE EXERCISE\DEBUG\VC100.PDB
