^C:\USERS\0109835\DOCUMENTS\VISUAL STUDIO 2010\PROJECTS\STACKQUEUE EXERCISE\STACKQUEUE EXERCISE\DEBUG\STACKQUEUE EXERCISE.EXE.EMBED.MANIFEST.RES|C:\USERS\0109835\DOCUMENTS\VISUAL STUDIO 2010\PROJECTS\STACKQUEUE EXERCISE\STACKQUEUE EXERCISE\DEBUG\STACKQUEUE EXERCISE.OBJ|C:\USERS\0109835\DOCUMENTS\VISUAL STUDIO 2010\PROJECTS\STACKQUEUE EXERCISE\STACKQUEUE EXERCISE\DEBUG\STDAFX.OBJ
/ERRORREPORT:PROMPT /OUT:"c:\users\0109835\documents\visual studio 2010\Projects\StackQueue Exercise\Debug\StackQueue Exercise.exe" /INCREMENTAL /NOLOGO kernel32.lib user32.lib gdi32.lib winspool.lib comdlg32.lib advapi32.lib shell32.lib ole32.lib oleaut32.lib uuid.lib odbc32.lib odbccp32.lib /MANIFEST /ManifestFile:"Debug\StackQueue Exercise.exe.intermediate.manifest" /MANIFESTUAC:"level='asInvoker' uiAccess='false'" /DEBUG /PDB:"c:\users\0109835\documents\visual studio 2010\Projects\StackQueue Exercise\Debug\StackQueue Exercise.pdb" /SUBSYSTEM:CONSOLE /TLBID:1 /DYNAMICBASE /NXCOMPAT /IMPLIB:"c:\users\0109835\documents\visual studio 2010\Projects\StackQueue Exercise\Debug\StackQueue Exercise.lib" /MACHINE:X86 "Debug\StackQueue Exercise.exe.embed.manifest.res"
"Debug\StackQueue Exercise.obj"
Debug\stdafx.obj
^C:\USERS\SEAN-LI MURMANN\GOOGLE DRIVE\KDU\SEMESTER 3\DATASTRUCTURES & ALGORITHMS\WEEK 2 (STACKS,QUEUES)\STACKQUEUE EXERCISE\STACKQUEUE EXERCISE\DEBUG\STACKQUEUE EXERCISE.EXE.EMBED.MANIFEST.RES|C:\USERS\SEAN-LI MURMANN\GOOGLE DRIVE\KDU\SEMESTER 3\DATASTRUCTURES & ALGORITHMS\WEEK 2 (STACKS,QUEUES)\STACKQUEUE EXERCISE\STACKQUEUE EXERCISE\DEBUG\STACKQUEUE EXERCISE.OBJ|C:\USERS\SEAN-LI MURMANN\GOOGLE DRIVE\KDU\SEMESTER 3\DATASTRUCTURES & ALGORITHMS\WEEK 2 (STACKS,QUEUES)\STACKQUEUE EXERCISE\STACKQUEUE EXERCISE\DEBUG\STDAFX.OBJ
/ERRORREPORT:PROMPT /OUT:"C:\Users\Sean-Li Murmann\Google Drive\KDU\Semester 3\DataStructures & Algorithms\Week 2 (Stacks,Queues)\StackQueue Exercise\Debug\StackQueue Exercise.exe" /INCREMENTAL /NOLOGO kernel32.lib user32.lib gdi32.lib winspool.lib comdlg32.lib advapi32.lib shell32.lib ole32.lib oleaut32.lib uuid.lib odbc32.lib odbccp32.lib /MANIFEST /ManifestFile:"Debug\StackQueue Exercise.exe.intermediate.manifest" /MANIFESTUAC:"level='asInvoker' uiAccess='false'" /DEBUG /PDB:"C:\Users\Sean-Li Murmann\Google Drive\KDU\Semester 3\DataStructures & Algorithms\Week 2 (Stacks,Queues)\StackQueue Exercise\Debug\StackQueue Exercise.pdb" /SUBSYSTEM:CONSOLE /TLBID:1 /DYNAMICBASE /NXCOMPAT /IMPLIB:"C:\Users\Sean-Li Murmann\Google Drive\KDU\Semester 3\DataStructures & Algorithms\Week 2 (Stacks,Queues)\StackQueue Exercise\Debug\StackQueue Exercise.lib" /MACHINE:X86 "Debug\StackQueue Exercise.exe.embed.manifest.res"
"Debug\StackQueue Exercise.obj"
Debug\stdafx.obj
