^C:\USERS\SEAN-LI\DOCUMENTS\BITBUCKET\KDU\SEMESTER 6\3D PROGRAMMING\WEEK 4\SHADER_HELLOWORLD\SHADER_HELLOWORLD\DEBUG\DEMO.OBJ
/OUT:"C:\USERS\SEAN-LI\DOCUMENTS\BITBUCKET\KDU\SEMESTER 6\3D PROGRAMMING\WEEK 4\SHADER_HELLOWORLD\DEBUG\SHADER_HELLOWORLD.EXE" /INCREMENTAL:NO /NOLOGO /LIBPATH:"C:\Program Files (x86)\FMOD SoundSystem\FMOD Programmers API Windows\api\lib" /LIBPATH:"C:\Users\Sean-Li\Documents\BitBucket\KDU\Semester 6\3D Programming\gles2-starter-win32" libglesv2.lib libegl.lib glfw3dll.lib fmodex_vc.lib kernel32.lib user32.lib gdi32.lib winspool.lib comdlg32.lib advapi32.lib shell32.lib ole32.lib oleaut32.lib uuid.lib odbc32.lib odbccp32.lib /MANIFEST /MANIFESTUAC:"level='asInvoker' uiAccess='false'" /manifest:embed /DEBUG /PDB:"C:\USERS\SEAN-LI\DOCUMENTS\BITBUCKET\KDU\SEMESTER 6\3D PROGRAMMING\WEEK 4\SHADER_HELLOWORLD\DEBUG\SHADER_HELLOWORLD.PDB" /SUBSYSTEM:CONSOLE /TLBID:1 /DYNAMICBASE /NXCOMPAT /IMPLIB:"C:\USERS\SEAN-LI\DOCUMENTS\BITBUCKET\KDU\SEMESTER 6\3D PROGRAMMING\WEEK 4\SHADER_HELLOWORLD\DEBUG\SHADER_HELLOWORLD.LIB" /MACHINE:X86 DEBUG\DEMO.OBJ
^C:\USERS\SEAN-LI\DOCUMENTS\BITBUCKET\KDU\SEMESTER 6\3D PROGRAMMING\WEEK 5\SHADER_HELLOWORLD\SHADER_HELLOWORLD\DEBUG\DEMO.OBJ
/OUT:"C:\USERS\SEAN-LI\DOCUMENTS\BITBUCKET\KDU\SEMESTER 6\3D PROGRAMMING\WEEK 5\SHADER_HELLOWORLD\DEBUG\SHADER_HELLOWORLD.EXE" /INCREMENTAL:NO /NOLOGO /LIBPATH:"C:\Program Files (x86)\FMOD SoundSystem\FMOD Programmers API Windows\api\lib" /LIBPATH:"C:\Users\Sean-Li\Documents\BitBucket\KDU\Semester 6\3D Programming\gles2-starter-win32" libglesv2.lib libegl.lib glfw3dll.lib fmodex_vc.lib kernel32.lib user32.lib gdi32.lib winspool.lib comdlg32.lib advapi32.lib shell32.lib ole32.lib oleaut32.lib uuid.lib odbc32.lib odbccp32.lib /MANIFEST /MANIFESTUAC:"level='asInvoker' uiAccess='false'" /manifest:embed /DEBUG /PDB:"C:\USERS\SEAN-LI\DOCUMENTS\BITBUCKET\KDU\SEMESTER 6\3D PROGRAMMING\WEEK 5\SHADER_HELLOWORLD\DEBUG\SHADER_HELLOWORLD.PDB" /SUBSYSTEM:CONSOLE /TLBID:1 /DYNAMICBASE /NXCOMPAT /IMPLIB:"C:\USERS\SEAN-LI\DOCUMENTS\BITBUCKET\KDU\SEMESTER 6\3D PROGRAMMING\WEEK 5\SHADER_HELLOWORLD\DEBUG\SHADER_HELLOWORLD.LIB" /MACHINE:X86 DEBUG\DEMO.OBJ
^C:\USERS\SEAN-LI\DOCUMENTS\BITBUCKET\KDU\SEMESTER 6\3D PROGRAMMING\WEEK 6\SHADER_HELLOWORLD\SHADER_HELLOWORLD\DEBUG\DEMO.OBJ|C:\USERS\SEAN-LI\DOCUMENTS\BITBUCKET\KDU\SEMESTER 6\3D PROGRAMMING\WEEK 6\SHADER_HELLOWORLD\SHADER_HELLOWORLD\DEBUG\GEOMETRY_UTILS.OBJ|C:\USERS\SEAN-LI\DOCUMENTS\BITBUCKET\KDU\SEMESTER 6\3D PROGRAMMING\WEEK 6\SHADER_HELLOWORLD\SHADER_HELLOWORLD\DEBUG\MATRIX.OBJ|C:\USERS\SEAN-LI\DOCUMENTS\BITBUCKET\KDU\SEMESTER 6\3D PROGRAMMING\WEEK 6\SHADER_HELLOWORLD\SHADER_HELLOWORLD\DEBUG\VECTOR.OBJ
/OUT:"C:\USERS\SEAN-LI\DOCUMENTS\BITBUCKET\KDU\SEMESTER 6\3D PROGRAMMING\WEEK 6\SHADER_HELLOWORLD\DEBUG\SHADER_HELLOWORLD.EXE" /INCREMENTAL:NO /NOLOGO /LIBPATH:"C:\Program Files (x86)\FMOD SoundSystem\FMOD Programmers API Windows\api\lib" /LIBPATH:"C:\Users\Sean-Li\Documents\BitBucket\KDU\Semester 6\3D Programming\gles2-starter-win32" libglesv2.lib libegl.lib glfw3dll.lib fmodex_vc.lib kernel32.lib user32.lib gdi32.lib winspool.lib comdlg32.lib advapi32.lib shell32.lib ole32.lib oleaut32.lib uuid.lib odbc32.lib odbccp32.lib /MANIFEST /MANIFESTUAC:"level='asInvoker' uiAccess='false'" /manifest:embed /DEBUG /PDB:"C:\USERS\SEAN-LI\DOCUMENTS\BITBUCKET\KDU\SEMESTER 6\3D PROGRAMMING\WEEK 6\SHADER_HELLOWORLD\DEBUG\SHADER_HELLOWORLD.PDB" /SUBSYSTEM:CONSOLE /TLBID:1 /DYNAMICBASE /NXCOMPAT /IMPLIB:"C:\USERS\SEAN-LI\DOCUMENTS\BITBUCKET\KDU\SEMESTER 6\3D PROGRAMMING\WEEK 6\SHADER_HELLOWORLD\DEBUG\SHADER_HELLOWORLD.LIB" /MACHINE:X86 DEBUG\GEOMETRY_UTILS.OBJDEBUG\MATRIX.OBJDEBUG\VECTOR.OBJDEBUG\DEMO.OBJ
^C:\USERS\SEAN-LI\DOCUMENTS\BITBUCKET\KDU\SEMESTER 6\3D PROGRAMMING\WEEK 7\SHADER_HELLOWORLD\SHADER_HELLOWORLD\DEBUG\DEMO.OBJ|C:\USERS\SEAN-LI\DOCUMENTS\BITBUCKET\KDU\SEMESTER 6\3D PROGRAMMING\WEEK 7\SHADER_HELLOWORLD\SHADER_HELLOWORLD\DEBUG\GEOMETRY_UTILS.OBJ|C:\USERS\SEAN-LI\DOCUMENTS\BITBUCKET\KDU\SEMESTER 6\3D PROGRAMMING\WEEK 7\SHADER_HELLOWORLD\SHADER_HELLOWORLD\DEBUG\MATRIX.OBJ|C:\USERS\SEAN-LI\DOCUMENTS\BITBUCKET\KDU\SEMESTER 6\3D PROGRAMMING\WEEK 7\SHADER_HELLOWORLD\SHADER_HELLOWORLD\DEBUG\VECTOR.OBJ
/OUT:"C:\USERS\SEAN-LI\DOCUMENTS\BITBUCKET\KDU\SEMESTER 6\3D PROGRAMMING\WEEK 7\SHADER_HELLOWORLD\DEBUG\SHADER_HELLOWORLD.EXE" /INCREMENTAL:NO /NOLOGO /LIBPATH:"C:\Program Files (x86)\FMOD SoundSystem\FMOD Programmers API Windows\api\lib" /LIBPATH:"C:\Users\Sean-Li\Documents\BitBucket\KDU\Semester 6\3D Programming\gles2-starter-win32" libglesv2.lib libegl.lib glfw3dll.lib fmodex_vc.lib kernel32.lib user32.lib gdi32.lib winspool.lib comdlg32.lib advapi32.lib shell32.lib ole32.lib oleaut32.lib uuid.lib odbc32.lib odbccp32.lib /MANIFEST /MANIFESTUAC:"level='asInvoker' uiAccess='false'" /manifest:embed /DEBUG /PDB:"C:\USERS\SEAN-LI\DOCUMENTS\BITBUCKET\KDU\SEMESTER 6\3D PROGRAMMING\WEEK 7\SHADER_HELLOWORLD\DEBUG\SHADER_HELLOWORLD.PDB" /SUBSYSTEM:CONSOLE /TLBID:1 /DYNAMICBASE /NXCOMPAT /IMPLIB:"C:\USERS\SEAN-LI\DOCUMENTS\BITBUCKET\KDU\SEMESTER 6\3D PROGRAMMING\WEEK 7\SHADER_HELLOWORLD\DEBUG\SHADER_HELLOWORLD.LIB" /MACHINE:X86 DEBUG\GEOMETRY_UTILS.OBJDEBUG\MATRIX.OBJDEBUG\VECTOR.OBJDEBUG\DEMO.OBJ
^C:\USERS\SEAN-LI\DOCUMENTS\BITBUCKET\KDU\SEMESTER 6\3D PROGRAMMING\WEEK 8\SHADER_HELLOWORLD\SHADER_HELLOWORLD\DEBUG\DEMO.OBJ|C:\USERS\SEAN-LI\DOCUMENTS\BITBUCKET\KDU\SEMESTER 6\3D PROGRAMMING\WEEK 8\SHADER_HELLOWORLD\SHADER_HELLOWORLD\DEBUG\GEOMETRY_UTILS.OBJ|C:\USERS\SEAN-LI\DOCUMENTS\BITBUCKET\KDU\SEMESTER 6\3D PROGRAMMING\WEEK 8\SHADER_HELLOWORLD\SHADER_HELLOWORLD\DEBUG\MATRIX.OBJ|C:\USERS\SEAN-LI\DOCUMENTS\BITBUCKET\KDU\SEMESTER 6\3D PROGRAMMING\WEEK 8\SHADER_HELLOWORLD\SHADER_HELLOWORLD\DEBUG\VECTOR.OBJ
/OUT:"C:\USERS\SEAN-LI\DOCUMENTS\BITBUCKET\KDU\SEMESTER 6\3D PROGRAMMING\WEEK 8\SHADER_HELLOWORLD\DEBUG\SHADER_HELLOWORLD.EXE" /INCREMENTAL:NO /NOLOGO /LIBPATH:"C:\Program Files (x86)\FMOD SoundSystem\FMOD Programmers API Windows\api\lib" /LIBPATH:"C:\Users\Sean-Li\Documents\BitBucket\KDU\Semester 6\3D Programming\gles2-starter-win32" libglesv2.lib libegl.lib glfw3dll.lib fmodex_vc.lib kernel32.lib user32.lib gdi32.lib winspool.lib comdlg32.lib advapi32.lib shell32.lib ole32.lib oleaut32.lib uuid.lib odbc32.lib odbccp32.lib /MANIFEST /MANIFESTUAC:"level='asInvoker' uiAccess='false'" /manifest:embed /DEBUG /PDB:"C:\USERS\SEAN-LI\DOCUMENTS\BITBUCKET\KDU\SEMESTER 6\3D PROGRAMMING\WEEK 8\SHADER_HELLOWORLD\DEBUG\SHADER_HELLOWORLD.PDB" /SUBSYSTEM:CONSOLE /TLBID:1 /DYNAMICBASE /NXCOMPAT /IMPLIB:"C:\USERS\SEAN-LI\DOCUMENTS\BITBUCKET\KDU\SEMESTER 6\3D PROGRAMMING\WEEK 8\SHADER_HELLOWORLD\DEBUG\SHADER_HELLOWORLD.LIB" /MACHINE:X86 DEBUG\GEOMETRY_UTILS.OBJDEBUG\MATRIX.OBJDEBUG\VECTOR.OBJDEBUG\DEMO.OBJ
^C:\USERS\SEAN-LI\DOCUMENTS\BITBUCKET\KDU\SEMESTER 6\3D PROGRAMMING\WEEK 9\SHADER_HELLOWORLD\SHADER_HELLOWORLD\DEBUG\DEMO.OBJ|C:\USERS\SEAN-LI\DOCUMENTS\BITBUCKET\KDU\SEMESTER 6\3D PROGRAMMING\WEEK 9\SHADER_HELLOWORLD\SHADER_HELLOWORLD\DEBUG\GEOMETRY_UTILS.OBJ|C:\USERS\SEAN-LI\DOCUMENTS\BITBUCKET\KDU\SEMESTER 6\3D PROGRAMMING\WEEK 9\SHADER_HELLOWORLD\SHADER_HELLOWORLD\DEBUG\MATRIX.OBJ|C:\USERS\SEAN-LI\DOCUMENTS\BITBUCKET\KDU\SEMESTER 6\3D PROGRAMMING\WEEK 9\SHADER_HELLOWORLD\SHADER_HELLOWORLD\DEBUG\VECTOR.OBJ
/OUT:"C:\USERS\SEAN-LI\DOCUMENTS\BITBUCKET\KDU\SEMESTER 6\3D PROGRAMMING\WEEK 9\SHADER_HELLOWORLD\DEBUG\SHADER_HELLOWORLD.EXE" /INCREMENTAL:NO /NOLOGO /LIBPATH:"C:\Program Files (x86)\FMOD SoundSystem\FMOD Programmers API Windows\api\lib" /LIBPATH:"C:\Users\Sean-Li\Documents\BitBucket\KDU\Semester 6\3D Programming\gles2-starter-win32" libglesv2.lib libegl.lib glfw3dll.lib fmodex_vc.lib kernel32.lib user32.lib gdi32.lib winspool.lib comdlg32.lib advapi32.lib shell32.lib ole32.lib oleaut32.lib uuid.lib odbc32.lib odbccp32.lib /MANIFEST /MANIFESTUAC:"level='asInvoker' uiAccess='false'" /manifest:embed /DEBUG /PDB:"C:\USERS\SEAN-LI\DOCUMENTS\BITBUCKET\KDU\SEMESTER 6\3D PROGRAMMING\WEEK 9\SHADER_HELLOWORLD\DEBUG\SHADER_HELLOWORLD.PDB" /SUBSYSTEM:CONSOLE /TLBID:1 /DYNAMICBASE /NXCOMPAT /IMPLIB:"C:\USERS\SEAN-LI\DOCUMENTS\BITBUCKET\KDU\SEMESTER 6\3D PROGRAMMING\WEEK 9\SHADER_HELLOWORLD\DEBUG\SHADER_HELLOWORLD.LIB" /MACHINE:X86 DEBUG\GEOMETRY_UTILS.OBJDEBUG\MATRIX.OBJDEBUG\VECTOR.OBJDEBUG\DEMO.OBJ
^C:\USERS\SEAN-LI\DOCUMENTS\BITBUCKET\KDU\SEMESTER 6\3D PROGRAMMING\WEEK 10\SHADER_HELLOWORLD\SHADER_HELLOWORLD\DEBUG\DEMO.OBJ|C:\USERS\SEAN-LI\DOCUMENTS\BITBUCKET\KDU\SEMESTER 6\3D PROGRAMMING\WEEK 10\SHADER_HELLOWORLD\SHADER_HELLOWORLD\DEBUG\GEOMETRY_UTILS.OBJ|C:\USERS\SEAN-LI\DOCUMENTS\BITBUCKET\KDU\SEMESTER 6\3D PROGRAMMING\WEEK 10\SHADER_HELLOWORLD\SHADER_HELLOWORLD\DEBUG\MATRIX.OBJ|C:\USERS\SEAN-LI\DOCUMENTS\BITBUCKET\KDU\SEMESTER 6\3D PROGRAMMING\WEEK 10\SHADER_HELLOWORLD\SHADER_HELLOWORLD\DEBUG\VECTOR.OBJ
/OUT:"C:\USERS\SEAN-LI\DOCUMENTS\BITBUCKET\KDU\SEMESTER 6\3D PROGRAMMING\WEEK 10\SHADER_HELLOWORLD\DEBUG\SHADER_HELLOWORLD.EXE" /INCREMENTAL:NO /NOLOGO /LIBPATH:"C:\Program Files (x86)\FMOD SoundSystem\FMOD Programmers API Windows\api\lib" /LIBPATH:"C:\Users\Sean-Li\Documents\BitBucket\KDU\Semester 6\3D Programming\gles2-starter-win32" libglesv2.lib libegl.lib glfw3dll.lib fmodex_vc.lib kernel32.lib user32.lib gdi32.lib winspool.lib comdlg32.lib advapi32.lib shell32.lib ole32.lib oleaut32.lib uuid.lib odbc32.lib odbccp32.lib /MANIFEST /MANIFESTUAC:"level='asInvoker' uiAccess='false'" /manifest:embed /DEBUG /PDB:"C:\USERS\SEAN-LI\DOCUMENTS\BITBUCKET\KDU\SEMESTER 6\3D PROGRAMMING\WEEK 10\SHADER_HELLOWORLD\DEBUG\SHADER_HELLOWORLD.PDB" /SUBSYSTEM:CONSOLE /TLBID:1 /DYNAMICBASE /NXCOMPAT /IMPLIB:"C:\USERS\SEAN-LI\DOCUMENTS\BITBUCKET\KDU\SEMESTER 6\3D PROGRAMMING\WEEK 10\SHADER_HELLOWORLD\DEBUG\SHADER_HELLOWORLD.LIB" /MACHINE:X86 DEBUG\GEOMETRY_UTILS.OBJDEBUG\MATRIX.OBJDEBUG\VECTOR.OBJDEBUG\DEMO.OBJ
