^C:\USERS\SEAN-LI\DOCUMENTS\BITBUCKET\KDU\SEMESTER 7\GAMEENGINE\SEANENGINE\SEANENGINE\RELEASE\.NETFRAMEWORK,VERSION=V4.0.ASSEMBLYATTRIBUTES.OBJ|C:\USERS\SEAN-LI\DOCUMENTS\BITBUCKET\KDU\SEMESTER 7\GAMEENGINE\SEANENGINE\SEANENGINE\RELEASE\APP.RES|C:\USERS\SEAN-LI\DOCUMENTS\BITBUCKET\KDU\SEMESTER 7\GAMEENGINE\SEANENGINE\SEANENGINE\RELEASE\ASSEMBLYINFO.OBJ|C:\USERS\SEAN-LI\DOCUMENTS\BITBUCKET\KDU\SEMESTER 7\GAMEENGINE\SEANENGINE\SEANENGINE\RELEASE\SEANENGINE.OBJ|C:\USERS\SEAN-LI\DOCUMENTS\BITBUCKET\KDU\SEMESTER 7\GAMEENGINE\SEANENGINE\SEANENGINE\RELEASE\STDAFX.OBJ
C:\USERS\SEAN-LI\DOCUMENTS\BITBUCKET\KDU\SEMESTER 7\GAMEENGINE\SEANENGINE\SEANENGINE\RELEASE\APP.RES
C:\USERS\SEAN-LI\DOCUMENTS\BITBUCKET\KDU\SEMESTER 7\GAMEENGINE\SEANENGINE\SEANENGINE\RELEASE\ASSEMBLYINFO.OBJ
C:\USERS\SEAN-LI\DOCUMENTS\BITBUCKET\KDU\SEMESTER 7\GAMEENGINE\SEANENGINE\SEANENGINE\RELEASE\SEANENGINE.OBJ
C:\USERS\SEAN-LI\DOCUMENTS\BITBUCKET\KDU\SEMESTER 7\GAMEENGINE\SEANENGINE\SEANENGINE\RELEASE\STDAFX.OBJ
C:\USERS\SEAN-LI\DOCUMENTS\BITBUCKET\KDU\SEMESTER 7\GAMEENGINE\SEANENGINE\SEANENGINE\RELEASE\.NETFRAMEWORK,VERSION=V4.0.ASSEMBLYATTRIBUTES.OBJ
C:\WINDOWS\GLOBALIZATION\SORTING\SORTDEFAULT.NLS
C:\WINDOWS\MICROSOFT.NET\FRAMEWORK\V2.0.50727\MSCORWKS.DLL
C:\WINDOWS\MICROSOFT.NET\FRAMEWORK\V4.0.30319\CLR.DLL
C:\PROGRAM FILES (X86)\MICROSOFT VISUAL STUDIO 10.0\VC\BIN\LINK.EXE.CONFIG
C:\PROGRAM FILES (X86)\MICROSOFT VISUAL STUDIO 10.0\VC\LIB\MSVCRT.LIB
C:\PROGRAM FILES (X86)\MICROSOFT VISUAL STUDIO 10.0\VC\LIB\OLDNAMES.LIB
C:\PROGRAM FILES (X86)\MICROSOFT VISUAL STUDIO 10.0\VC\LIB\MSVCMRT.LIB
C:\PROGRAM FILES (X86)\MICROSOFT SDKS\WINDOWS\V7.0A\LIB\MSCOREE.LIB
C:\PROGRAM FILES (X86)\MICROSOFT VISUAL STUDIO 10.0\VC\LIB\MSVCPRT.LIB
C:\PROGRAM FILES (X86)\MICROSOFT SDKS\WINDOWS\V7.0A\LIB\UUID.LIB
C:\PROGRAM FILES (X86)\MICROSOFT SDKS\WINDOWS\V7.0A\LIB\KERNEL32.LIB
C:\PROGRAM FILES (X86)\MICROSOFT VISUAL STUDIO 10.0\VC\BIN\CVTRES.EXE
C:\WINDOWS\SYSTEM32\TZRES.DLL
