^U:\QUEUE\QUEUE\DEBUG\QUEUE.EXE.EMBED.MANIFEST.RES|U:\QUEUE\QUEUE\DEBUG\QUEUE.OBJ|U:\QUEUE\QUEUE\DEBUG\STDAFX.OBJ
U:\QUEUE\DEBUG\QUEUE.ILK
U:\QUEUE\DEBUG\QUEUE.EXE
U:\QUEUE\QUEUE\DEBUG\QUEUE.EXE.INTERMEDIATE.MANIFEST
U:\QUEUE\DEBUG\QUEUE.PDB
^C:\USERS\SEAN-LI MURMANN\GOOGLE DRIVE\KDU\SEMESTER 3\DATASTRUCTURES & ALGORITHMS\WEEK 2 (STACKS,QUEUES)\QUEUE\QUEUE\DEBUG\QUEUE.EXE.EMBED.MANIFEST.RES|C:\USERS\SEAN-LI MURMANN\GOOGLE DRIVE\KDU\SEMESTER 3\DATASTRUCTURES & ALGORITHMS\WEEK 2 (STACKS,QUEUES)\QUEUE\QUEUE\DEBUG\QUEUE.OBJ|C:\USERS\SEAN-LI MURMANN\GOOGLE DRIVE\KDU\SEMESTER 3\DATASTRUCTURES & ALGORITHMS\WEEK 2 (STACKS,QUEUES)\QUEUE\QUEUE\DEBUG\STDAFX.OBJ
C:\USERS\SEAN-LI MURMANN\GOOGLE DRIVE\KDU\SEMESTER 3\DATASTRUCTURES & ALGORITHMS\WEEK 2 (STACKS,QUEUES)\QUEUE\DEBUG\QUEUE.ILK
C:\USERS\SEAN-LI MURMANN\GOOGLE DRIVE\KDU\SEMESTER 3\DATASTRUCTURES & ALGORITHMS\WEEK 2 (STACKS,QUEUES)\QUEUE\DEBUG\QUEUE.EXE
C:\USERS\SEAN-LI MURMANN\GOOGLE DRIVE\KDU\SEMESTER 3\DATASTRUCTURES & ALGORITHMS\WEEK 2 (STACKS,QUEUES)\QUEUE\QUEUE\DEBUG\QUEUE.EXE.INTERMEDIATE.MANIFEST
C:\USERS\SEAN-LI MURMANN\GOOGLE DRIVE\KDU\SEMESTER 3\DATASTRUCTURES & ALGORITHMS\WEEK 2 (STACKS,QUEUES)\QUEUE\DEBUG\QUEUE.PDB
