^C:\USERS\SEAN-LI\DOCUMENTS\GITHUB\KDU_PROJECTS\SEMESTER 6\3D PROGRAMMING\WEEK 1\SHADER_HELLOWORLD\SHADER_HELLOWORLD\DEMO.C
/c /I"C:\USERS\SEAN-LI\DOCUMENTS\GITHUB\KDU_PROJECTS\SEMESTER 6\3D PROGRAMMING\GLES2" /I"D:\SDK\GLES2-STARTER-WIN32" /ZI /nologo /W3 /WX- /Od /Oy- /D WIN32 /D _DEBUG /D _WINDOWS /D _UNICODE /D UNICODE /Gm /EHsc /RTC1 /MDd /GS /fp:precise /Zc:wchar_t /Zc:forScope /Zc:inline /Fo"DEBUG\\" /Fd"DEBUG\VC140.PDB" /Gd /TC /analyze- C:\USERS\SEAN-LI\DOCUMENTS\GITHUB\KDU_PROJECTS\SEMESTER 6\3D PROGRAMMING\WEEK 1\SHADER_HELLOWORLD\SHADER_HELLOWORLD\DEMO.C
^C:\USERS\SEAN-LI\DOCUMENTS\GITHUB\KDU_PROJECTS\SEMESTER 6\3D PROGRAMMING\WEEK 2\SHADER_HELLOWORLD\SHADER_HELLOWORLD\DEMO.C
/c /I"C:\USERS\SEAN-LI\DOCUMENTS\GITHUB\KDU_PROJECTS\SEMESTER 6\3D PROGRAMMING\GLES2" /I"D:\SDK\GLES2-STARTER-WIN32" /ZI /nologo /W3 /WX- /Od /Oy- /D WIN32 /D _DEBUG /D _WINDOWS /D _UNICODE /D UNICODE /Gm /EHsc /RTC1 /MDd /GS /fp:precise /Zc:wchar_t /Zc:forScope /Zc:inline /Fo"DEBUG\\" /Fd"DEBUG\VC140.PDB" /Gd /TC /analyze- C:\USERS\SEAN-LI\DOCUMENTS\GITHUB\KDU_PROJECTS\SEMESTER 6\3D PROGRAMMING\WEEK 2\SHADER_HELLOWORLD\SHADER_HELLOWORLD\DEMO.C
^C:\USERS\SEAN-LI\DOCUMENTS\GITHUB\KDU_PROJECTS\SEMESTER 6\3D PROGRAMMING\WEEK 2\SHADER_HELLOWORLD\SHADER_HELLOWORLD\DEMO.CPP
/c /I"C:\USERS\SEAN-LI\DOCUMENTS\GITHUB\KDU_PROJECTS\SEMESTER 6\3D PROGRAMMING\GLES2" /I"D:\SDK\GLES2-STARTER-WIN32" /ZI /nologo /W3 /WX- /Od /Oy- /D WIN32 /D _DEBUG /D _WINDOWS /D _UNICODE /D UNICODE /Gm /EHsc /RTC1 /MDd /GS /fp:precise /Zc:wchar_t /Zc:forScope /Zc:inline /Fo"DEBUG\\" /Fd"DEBUG\VC140.PDB" /Gd /TP /analyze- C:\USERS\SEAN-LI\DOCUMENTS\GITHUB\KDU_PROJECTS\SEMESTER 6\3D PROGRAMMING\WEEK 2\SHADER_HELLOWORLD\SHADER_HELLOWORLD\DEMO.CPP
^C:\USERS\SEAN-LI\DOCUMENTS\GITHUB\KDU_PROJECTS\SEMESTER 6\3D PROGRAMMING\WEEK 4\SHADER_HELLOWORLD\SHADER_HELLOWORLD\DEMO.CPP
/c /I"C:\USERS\SEAN-LI\DOCUMENTS\GITHUB\KDU_PROJECTS\SEMESTER 6\3D PROGRAMMING\GLES2" /I"D:\SDK\GLES2-STARTER-WIN32" /ZI /nologo /W3 /WX- /Od /Oy- /D WIN32 /D _DEBUG /D _WINDOWS /D _UNICODE /D UNICODE /Gm /EHsc /RTC1 /MDd /GS /fp:precise /Zc:wchar_t /Zc:forScope /Zc:inline /Fo"DEBUG\\" /Fd"DEBUG\VC140.PDB" /Gd /TP /analyze- C:\USERS\SEAN-LI\DOCUMENTS\GITHUB\KDU_PROJECTS\SEMESTER 6\3D PROGRAMMING\WEEK 4\SHADER_HELLOWORLD\SHADER_HELLOWORLD\DEMO.CPP
