^C:\USERS\SEAN-LI\DOCUMENTS\GITHUB\KDU_PROJECTS\SEMESTER 6\3D PROGRAMMING\WEEK 1\SHADER_HELLOWORLD\SHADER_HELLOWORLD\DEBUG\DEMO.OBJ
C:\USERS\SEAN-LI\DOCUMENTS\GITHUB\KDU_PROJECTS\SEMESTER 6\3D PROGRAMMING\WEEK 1\SHADER_HELLOWORLD\DEBUG\SHADER_HELLOWORLD.EXE
C:\USERS\SEAN-LI\DOCUMENTS\GITHUB\KDU_PROJECTS\SEMESTER 6\3D PROGRAMMING\WEEK 1\SHADER_HELLOWORLD\DEBUG\SHADER_HELLOWORLD.PDB
^C:\USERS\SEAN-LI\DOCUMENTS\GITHUB\KDU_PROJECTS\SEMESTER 6\3D PROGRAMMING\WEEK 2\SHADER_HELLOWORLD\SHADER_HELLOWORLD\DEBUG\DEMO.OBJ
C:\USERS\SEAN-LI\DOCUMENTS\GITHUB\KDU_PROJECTS\SEMESTER 6\3D PROGRAMMING\WEEK 2\SHADER_HELLOWORLD\DEBUG\SHADER_HELLOWORLD.EXE
C:\USERS\SEAN-LI\DOCUMENTS\GITHUB\KDU_PROJECTS\SEMESTER 6\3D PROGRAMMING\WEEK 2\SHADER_HELLOWORLD\DEBUG\SHADER_HELLOWORLD.PDB
^C:\USERS\SEAN-LI\DOCUMENTS\GITHUB\KDU_PROJECTS\SEMESTER 6\3D PROGRAMMING\WEEK 4\SHADER_HELLOWORLD\SHADER_HELLOWORLD\DEBUG\DEMO.OBJ
C:\USERS\SEAN-LI\DOCUMENTS\GITHUB\KDU_PROJECTS\SEMESTER 6\3D PROGRAMMING\WEEK 4\SHADER_HELLOWORLD\DEBUG\SHADER_HELLOWORLD.EXE
C:\USERS\SEAN-LI\DOCUMENTS\GITHUB\KDU_PROJECTS\SEMESTER 6\3D PROGRAMMING\WEEK 4\SHADER_HELLOWORLD\DEBUG\SHADER_HELLOWORLD.PDB
