^D:\OOSAD\WEEK 4\FACTORYPATTERN\CONSOLEAPPLICATION1\AEMPLOYEE.CPP
/c /ZI /nologo /W3 /WX- /Od /Oy- /D WIN32 /D _DEBUG /D _CONSOLE /D _LIB /D _UNICODE /D UNICODE /Gm /EHsc /RTC1 /MDd /GS /fp:precise /Zc:wchar_t /Zc:forScope /Fo"DEBUG\\" /Fd"DEBUG\VC120.PDB" /Gd /TP /analyze- D:\OOSAD\WEEK 4\FACTORYPATTERN\CONSOLEAPPLICATION1\AEMPLOYEE.CPP
^D:\OOSAD\WEEK 4\FACTORYPATTERN\CONSOLEAPPLICATION1\FACTORYPATTERN.CPP
/c /ZI /nologo /W3 /WX- /Od /Oy- /D WIN32 /D _DEBUG /D _CONSOLE /D _LIB /D _UNICODE /D UNICODE /Gm /EHsc /RTC1 /MDd /GS /fp:precise /Zc:wchar_t /Zc:forScope /Fo"DEBUG\\" /Fd"DEBUG\VC120.PDB" /Gd /TP /analyze- D:\OOSAD\WEEK 4\FACTORYPATTERN\CONSOLEAPPLICATION1\FACTORYPATTERN.CPP
^D:\OOSAD\WEEK 4\FACTORYPATTERN\CONSOLEAPPLICATION1\EMPLOYEE.CPP
/c /ZI /nologo /W3 /WX- /Od /Oy- /D WIN32 /D _DEBUG /D _CONSOLE /D _LIB /D _UNICODE /D UNICODE /Gm /EHsc /RTC1 /MDd /GS /fp:precise /Zc:wchar_t /Zc:forScope /Fo"DEBUG\\" /Fd"DEBUG\VC120.PDB" /Gd /TP /analyze- D:\OOSAD\WEEK 4\FACTORYPATTERN\CONSOLEAPPLICATION1\EMPLOYEE.CPP
^D:\OOSAD\WEEK 4\FACTORYPATTERN\CONSOLEAPPLICATION1\STDAFX.CPP
/c /ZI /nologo /W3 /WX- /Od /Oy- /D WIN32 /D _DEBUG /D _CONSOLE /D _LIB /D _UNICODE /D UNICODE /Gm /EHsc /RTC1 /MDd /GS /fp:precise /Zc:wchar_t /Zc:forScope /Fo"DEBUG\\" /Fd"DEBUG\VC120.PDB" /Gd /TP /analyze- D:\OOSAD\WEEK 4\FACTORYPATTERN\CONSOLEAPPLICATION1\STDAFX.CPP
^F:\NOT IMPORTANT\OOSAD\WEEK 5\FACTORYPATTERN\CONSOLEAPPLICATION1\AEMPLOYEE.CPP
/c /ZI /nologo /W3 /WX- /Od /Oy- /D WIN32 /D _DEBUG /D _CONSOLE /D _LIB /D _UNICODE /D UNICODE /Gm /EHsc /RTC1 /MDd /GS /fp:precise /Zc:wchar_t /Zc:forScope /Fo"DEBUG\\" /Fd"DEBUG\VC120.PDB" /Gd /TP /analyze- F:\NOT IMPORTANT\OOSAD\WEEK 5\FACTORYPATTERN\CONSOLEAPPLICATION1\AEMPLOYEE.CPP
^F:\NOT IMPORTANT\OOSAD\WEEK 5\FACTORYPATTERN\CONSOLEAPPLICATION1\FACTORYPATTERN.CPP
/c /ZI /nologo /W3 /WX- /Od /Oy- /D WIN32 /D _DEBUG /D _CONSOLE /D _LIB /D _UNICODE /D UNICODE /Gm /EHsc /RTC1 /MDd /GS /fp:precise /Zc:wchar_t /Zc:forScope /Fo"DEBUG\\" /Fd"DEBUG\VC120.PDB" /Gd /TP /analyze- F:\NOT IMPORTANT\OOSAD\WEEK 5\FACTORYPATTERN\CONSOLEAPPLICATION1\FACTORYPATTERN.CPP
^F:\NOT IMPORTANT\OOSAD\WEEK 5\FACTORYPATTERN\CONSOLEAPPLICATION1\EMPLOYEE.CPP
/c /ZI /nologo /W3 /WX- /Od /Oy- /D WIN32 /D _DEBUG /D _CONSOLE /D _LIB /D _UNICODE /D UNICODE /Gm /EHsc /RTC1 /MDd /GS /fp:precise /Zc:wchar_t /Zc:forScope /Fo"DEBUG\\" /Fd"DEBUG\VC120.PDB" /Gd /TP /analyze- F:\NOT IMPORTANT\OOSAD\WEEK 5\FACTORYPATTERN\CONSOLEAPPLICATION1\EMPLOYEE.CPP
^F:\NOT IMPORTANT\OOSAD\WEEK 5\FACTORYPATTERN\CONSOLEAPPLICATION1\STDAFX.CPP
/c /ZI /nologo /W3 /WX- /Od /Oy- /D WIN32 /D _DEBUG /D _CONSOLE /D _LIB /D _UNICODE /D UNICODE /Gm /EHsc /RTC1 /MDd /GS /fp:precise /Zc:wchar_t /Zc:forScope /Fo"DEBUG\\" /Fd"DEBUG\VC120.PDB" /Gd /TP /analyze- F:\NOT IMPORTANT\OOSAD\WEEK 5\FACTORYPATTERN\CONSOLEAPPLICATION1\STDAFX.CPP
