^E:\USERS\BELL\DESKTOP\OOSAD\COMPOSITEDEMO\COMPOSTIEDEMO\COMPOSTIEDEMO\DEBUG\COMPOSTIEDEMO.OBJ|E:\USERS\BELL\DESKTOP\OOSAD\COMPOSITEDEMO\COMPOSTIEDEMO\COMPOSTIEDEMO\DEBUG\STDAFX.OBJ
E:\USERS\BELL\DESKTOP\OOSAD\COMPOSITEDEMO\COMPOSTIEDEMO\DEBUG\COMPOSTIEDEMO.ILK
E:\USERS\BELL\DESKTOP\OOSAD\COMPOSITEDEMO\COMPOSTIEDEMO\DEBUG\COMPOSTIEDEMO.EXE
E:\USERS\BELL\DESKTOP\OOSAD\COMPOSITEDEMO\COMPOSTIEDEMO\DEBUG\COMPOSTIEDEMO.PDB
