^D:\DUMPTOTHISFOLDER\DSA_STUDENTWORKS_SEPTEMBER2014\JASON YS\TEST\DEBUG\TEST.EXE.EMBED.MANIFEST.RES|D:\DUMPTOTHISFOLDER\DSA_STUDENTWORKS_SEPTEMBER2014\JASON YS\TEST\DEBUG\TEST.OBJ
/ERRORREPORT:PROMPT /OUT:"D:\DumpToThisFolder\DSA_StudentWorks_September2014\Jason YS\Test\Debug\Test.exe" /INCREMENTAL /NOLOGO kernel32.lib user32.lib gdi32.lib winspool.lib comdlg32.lib advapi32.lib shell32.lib ole32.lib oleaut32.lib uuid.lib odbc32.lib odbccp32.lib /MANIFEST /ManifestFile:"Debug\Test.exe.intermediate.manifest" /MANIFESTUAC:"level='asInvoker' uiAccess='false'" /DEBUG /PDB:"D:\DumpToThisFolder\DSA_StudentWorks_September2014\Jason YS\Test\Debug\Test.pdb" /SUBSYSTEM:CONSOLE /TLBID:1 /DYNAMICBASE /NXCOMPAT /IMPLIB:"D:\DumpToThisFolder\DSA_StudentWorks_September2014\Jason YS\Test\Debug\Test.lib" /MACHINE:X86 Debug\Test.exe.embed.manifest.res
Debug\Test.obj
