^C:\USERS\SEAN-LI\DOCUMENTS\BITBUCKET\KDU\SEMESTER 6\3D PROGRAMMING\WEEK 4\SHADER_HELLOWORLD\SHADER_HELLOWORLD\DEMO.CPP
C:\USERS\SEAN-LI\DOCUMENTS\BITBUCKET\KDU\SEMESTER 6\3D PROGRAMMING\WEEK 4\SHADER_HELLOWORLD\SHADER_HELLOWORLD\DEBUG\VC120.PDB
C:\USERS\SEAN-LI\DOCUMENTS\BITBUCKET\KDU\SEMESTER 6\3D PROGRAMMING\WEEK 4\SHADER_HELLOWORLD\SHADER_HELLOWORLD\DEBUG\VC120.IDB
C:\USERS\SEAN-LI\DOCUMENTS\BITBUCKET\KDU\SEMESTER 6\3D PROGRAMMING\WEEK 4\SHADER_HELLOWORLD\SHADER_HELLOWORLD\DEBUG\DEMO.OBJ
