^F:\KDU\SEMESTER 3\DATASTRUCTURES & ALGORITHMS\WEEK 3\STACKQUEUEEXERCISE4\STACKQUEUEEXERCISE4\DEBUG\STACKQUEUEEXERCISE4.EXE.EMBED.MANIFEST.RES|F:\KDU\SEMESTER 3\DATASTRUCTURES & ALGORITHMS\WEEK 3\STACKQUEUEEXERCISE4\STACKQUEUEEXERCISE4\DEBUG\STACKQUEUEEXERCISE4.OBJ|F:\KDU\SEMESTER 3\DATASTRUCTURES & ALGORITHMS\WEEK 3\STACKQUEUEEXERCISE4\STACKQUEUEEXERCISE4\DEBUG\STDAFX.OBJ
/ERRORREPORT:PROMPT /OUT:"F:\KDU\Semester 3\DataStructures & Algorithms\Week 3\StackQueueExercise4\Debug\StackQueueExercise4.exe" /INCREMENTAL /NOLOGO kernel32.lib user32.lib gdi32.lib winspool.lib comdlg32.lib advapi32.lib shell32.lib ole32.lib oleaut32.lib uuid.lib odbc32.lib odbccp32.lib /MANIFEST /ManifestFile:"Debug\StackQueueExercise4.exe.intermediate.manifest" /MANIFESTUAC:"level='asInvoker' uiAccess='false'" /DEBUG /PDB:"F:\KDU\Semester 3\DataStructures & Algorithms\Week 3\StackQueueExercise4\Debug\StackQueueExercise4.pdb" /SUBSYSTEM:CONSOLE /TLBID:1 /DYNAMICBASE /NXCOMPAT /IMPLIB:"F:\KDU\Semester 3\DataStructures & Algorithms\Week 3\StackQueueExercise4\Debug\StackQueueExercise4.lib" /MACHINE:X86 Debug\StackQueueExercise4.exe.embed.manifest.res
Debug\StackQueueExercise4.obj
Debug\stdafx.obj
^\\AREA51-01\DUMPTOTHISFOLDER\DSA_STUDENTWORKS_SEPTEMBER2014\0109835 SEAN-LI MURMANN\WEEK 3 (STACKS,Q, E2)\STACKQUEUEEXERCISE4\STACKQUEUEEXERCISE4\DEBUG\STACKQUEUEEXERCISE4.EXE.EMBED.MANIFEST.RES|\\AREA51-01\DUMPTOTHISFOLDER\DSA_STUDENTWORKS_SEPTEMBER2014\0109835 SEAN-LI MURMANN\WEEK 3 (STACKS,Q, E2)\STACKQUEUEEXERCISE4\STACKQUEUEEXERCISE4\DEBUG\STACKQUEUEEXERCISE4.OBJ|\\AREA51-01\DUMPTOTHISFOLDER\DSA_STUDENTWORKS_SEPTEMBER2014\0109835 SEAN-LI MURMANN\WEEK 3 (STACKS,Q, E2)\STACKQUEUEEXERCISE4\STACKQUEUEEXERCISE4\DEBUG\STDAFX.OBJ
/ERRORREPORT:PROMPT /OUT:"\\AREA51-01\DumpToThisFolder\DSA_StudentWorks_September2014\0109835 Sean-Li Murmann\Week 3 (Stacks,Q, E2)\StackQueueExercise4\Debug\StackQueueExercise4.exe" /INCREMENTAL /NOLOGO kernel32.lib user32.lib gdi32.lib winspool.lib comdlg32.lib advapi32.lib shell32.lib ole32.lib oleaut32.lib uuid.lib odbc32.lib odbccp32.lib /MANIFEST /ManifestFile:"Debug\StackQueueExercise4.exe.intermediate.manifest" /MANIFESTUAC:"level='asInvoker' uiAccess='false'" /DEBUG /PDB:"\\AREA51-01\DumpToThisFolder\DSA_StudentWorks_September2014\0109835 Sean-Li Murmann\Week 3 (Stacks,Q, E2)\StackQueueExercise4\Debug\StackQueueExercise4.pdb" /SUBSYSTEM:CONSOLE /TLBID:1 /DYNAMICBASE /NXCOMPAT /IMPLIB:"\\AREA51-01\DumpToThisFolder\DSA_StudentWorks_September2014\0109835 Sean-Li Murmann\Week 3 (Stacks,Q, E2)\StackQueueExercise4\Debug\StackQueueExercise4.lib" /MACHINE:X86 Debug\StackQueueExercise4.exe.embed.manifest.res
Debug\StackQueueExercise4.obj
Debug\stdafx.obj
