^C:\USERS\SEAN-LI\DOCUMENTS\GITHUB\KDU_PROJECTS\SEMESTER 5\GRAPHICS PROGRAMMING\WAVE\OPENGL_VERTEX_ARRAY\MAIN.CPP
/c /I"C:\GLFW-3.1.1.BIN.WIN32\INCLUDE" /ZI /nologo /W3 /WX- /Od /Oy- /D WIN32 /D _DEBUG /D _WINDOWS /D _UNICODE /D UNICODE /Gm /EHsc /RTC1 /MDd /GS /fp:precise /Zc:wchar_t /Zc:forScope /Zc:inline /Fo"DEBUG\\" /Fd"DEBUG\VC140.PDB" /Gd /TP /analyze- C:\USERS\SEAN-LI\DOCUMENTS\GITHUB\KDU_PROJECTS\SEMESTER 5\GRAPHICS PROGRAMMING\WAVE\OPENGL_VERTEX_ARRAY\MAIN.CPP
^C:\USERS\SEAN-LI\DOCUMENTS\GITHUB\KDU_PROJECTS\SEMESTER 5\GRAPHICS PROGRAMMING\WAVE\OPENGL_VERTEX_ARRAY\MATRIX.CPP
/c /I"C:\GLFW-3.1.1.BIN.WIN32\INCLUDE" /ZI /nologo /W3 /WX- /Od /Oy- /D WIN32 /D _DEBUG /D _WINDOWS /D _UNICODE /D UNICODE /Gm /EHsc /RTC1 /MDd /GS /fp:precise /Zc:wchar_t /Zc:forScope /Zc:inline /Fo"DEBUG\\" /Fd"DEBUG\VC140.PDB" /Gd /TP /analyze- C:\USERS\SEAN-LI\DOCUMENTS\GITHUB\KDU_PROJECTS\SEMESTER 5\GRAPHICS PROGRAMMING\WAVE\OPENGL_VERTEX_ARRAY\MATRIX.CPP
