^C:\USERS\SEAN-LI\DOCUMENTS\GITHUB\KDU_PROJECTS\SEMESTER 5\GRAPHICS PROGRAMMING\WEEK 2,3\GLFWHELLO\GLFWHELLO\DEBUG\MAIN.OBJ|C:\USERS\SEAN-LI\DOCUMENTS\GITHUB\KDU_PROJECTS\SEMESTER 5\GRAPHICS PROGRAMMING\WEEK 2,3\GLFWHELLO\GLFWHELLO\DEBUG\MATRIX.OBJ
C:\USERS\SEAN-LI\DOCUMENTS\GITHUB\KDU_PROJECTS\SEMESTER 5\GRAPHICS PROGRAMMING\WEEK 2,3\GLFWHELLO\DEBUG\GLFWHELLO.ILK
C:\USERS\SEAN-LI\DOCUMENTS\GITHUB\KDU_PROJECTS\SEMESTER 5\GRAPHICS PROGRAMMING\WEEK 2,3\GLFWHELLO\DEBUG\GLFWHELLO.EXE
C:\USERS\SEAN-LI\DOCUMENTS\GITHUB\KDU_PROJECTS\SEMESTER 5\GRAPHICS PROGRAMMING\WEEK 2,3\GLFWHELLO\DEBUG\GLFWHELLO.PDB
^C:\USERS\SEAN-LI\DOCUMENTS\GITHUB\KDU_PROJECTS\SEMESTER 5\GRAPHICS PROGRAMMING\WEEK 2,3\WEEK 6\GLFWHELLO\DEBUG\MAIN.OBJ|C:\USERS\SEAN-LI\DOCUMENTS\GITHUB\KDU_PROJECTS\SEMESTER 5\GRAPHICS PROGRAMMING\WEEK 2,3\WEEK 6\GLFWHELLO\DEBUG\MATRIX.OBJ
C:\USERS\SEAN-LI\DOCUMENTS\GITHUB\KDU_PROJECTS\SEMESTER 5\GRAPHICS PROGRAMMING\WEEK 2,3\WEEK 6\DEBUG\GLFWHELLO.ILK
C:\USERS\SEAN-LI\DOCUMENTS\GITHUB\KDU_PROJECTS\SEMESTER 5\GRAPHICS PROGRAMMING\WEEK 2,3\WEEK 6\DEBUG\GLFWHELLO.EXE
C:\USERS\SEAN-LI\DOCUMENTS\GITHUB\KDU_PROJECTS\SEMESTER 5\GRAPHICS PROGRAMMING\WEEK 2,3\WEEK 6\DEBUG\GLFWHELLO.PDB
