^D:\KDU\GRAPHICS PROGRAMMING\TUTORIAL\OPENGL_VERTEX_ARRAY\OPENGL_VERTEX_ARRAY\DEBUG\OPENGL_VERTEX_ARRAY_MANIFEST.RC
/nologo /fo"Debug\opengl_vertex_array.exe.embed.manifest.res" Debug\opengl_vertex_array_manifest.rc /nologo /fo"Debug\opengl_vertex_array.exe.embed.manifest.res" D:\KDU\GRAPHICS PROGRAMMING\TUTORIAL\OPENGL_VERTEX_ARRAY\OPENGL_VERTEX_ARRAY\DEBUG\OPENGL_VERTEX_ARRAY_MANIFEST.RC
^D:\KDU\GRAPHICS PROGRAMMING\TUTORIAL\WAVE_ONLLY\OPENGL_VERTEX_ARRAY\DEBUG\OPENGL_VERTEX_ARRAY_MANIFEST.RC
/nologo /fo"Debug\opengl_vertex_array.exe.embed.manifest.res" Debug\opengl_vertex_array_manifest.rc /nologo /fo"Debug\opengl_vertex_array.exe.embed.manifest.res" D:\KDU\GRAPHICS PROGRAMMING\TUTORIAL\WAVE_ONLLY\OPENGL_VERTEX_ARRAY\DEBUG\OPENGL_VERTEX_ARRAY_MANIFEST.RC
