^C:\USERS\SEAN-LI\DOCUMENTS\BITBUCKET\KDU\SEMESTER 6\3D PROGRAMMING\WEEK 10\SHADER_HELLOWORLD_SEPERATESHADERS\SHADER_HELLOWORLD\ANGLE_UTIL\GEOMETRY_UTILS.CPP|C:\USERS\SEAN-LI\DOCUMENTS\BITBUCKET\KDU\SEMESTER 6\3D PROGRAMMING\WEEK 10\SHADER_HELLOWORLD_SEPERATESHADERS\SHADER_HELLOWORLD\ANGLE_UTIL\MATRIX.CPP|C:\USERS\SEAN-LI\DOCUMENTS\BITBUCKET\KDU\SEMESTER 6\3D PROGRAMMING\WEEK 10\SHADER_HELLOWORLD_SEPERATESHADERS\SHADER_HELLOWORLD\ANGLE_UTIL\VECTOR.CPP|C:\USERS\SEAN-LI\DOCUMENTS\BITBUCKET\KDU\SEMESTER 6\3D PROGRAMMING\WEEK 10\SHADER_HELLOWORLD_SEPERATESHADERS\SHADER_HELLOWORLD\DEMO.CPP
C:\USERS\SEAN-LI\DOCUMENTS\BITBUCKET\KDU\SEMESTER 6\3D PROGRAMMING\WEEK 10\SHADER_HELLOWORLD_SEPERATESHADERS\SHADER_HELLOWORLD\DEBUG\VC120.PDB
C:\USERS\SEAN-LI\DOCUMENTS\BITBUCKET\KDU\SEMESTER 6\3D PROGRAMMING\WEEK 10\SHADER_HELLOWORLD_SEPERATESHADERS\SHADER_HELLOWORLD\DEBUG\VC120.IDB
C:\USERS\SEAN-LI\DOCUMENTS\BITBUCKET\KDU\SEMESTER 6\3D PROGRAMMING\WEEK 10\SHADER_HELLOWORLD_SEPERATESHADERS\SHADER_HELLOWORLD\DEBUG\GEOMETRY_UTILS.OBJ
C:\USERS\SEAN-LI\DOCUMENTS\BITBUCKET\KDU\SEMESTER 6\3D PROGRAMMING\WEEK 10\SHADER_HELLOWORLD_SEPERATESHADERS\SHADER_HELLOWORLD\DEBUG\MATRIX.OBJ
C:\USERS\SEAN-LI\DOCUMENTS\BITBUCKET\KDU\SEMESTER 6\3D PROGRAMMING\WEEK 10\SHADER_HELLOWORLD_SEPERATESHADERS\SHADER_HELLOWORLD\DEBUG\VECTOR.OBJ
C:\USERS\SEAN-LI\DOCUMENTS\BITBUCKET\KDU\SEMESTER 6\3D PROGRAMMING\WEEK 10\SHADER_HELLOWORLD_SEPERATESHADERS\SHADER_HELLOWORLD\DEBUG\DEMO.OBJ
^C:\USERS\SEAN-LI\DOCUMENTS\BITBUCKET\KDU\SEMESTER 6\3D PROGRAMMING\WEEK 10\SHADER_HELLOWORLD_SEPERATESHADERS\SHADER_HELLOWORLD\ANGLE_UTIL\GEOMETRY_UTILS.CPP
C:\USERS\SEAN-LI\DOCUMENTS\BITBUCKET\KDU\SEMESTER 6\3D PROGRAMMING\WEEK 10\SHADER_HELLOWORLD_SEPERATESHADERS\SHADER_HELLOWORLD\DEBUG\VC120.PDB
^C:\USERS\SEAN-LI\DOCUMENTS\BITBUCKET\KDU\SEMESTER 6\3D PROGRAMMING\WEEK 10\SHADER_HELLOWORLD_SEPERATESHADERS\SHADER_HELLOWORLD\ANGLE_UTIL\MATRIX.CPP
C:\USERS\SEAN-LI\DOCUMENTS\BITBUCKET\KDU\SEMESTER 6\3D PROGRAMMING\WEEK 10\SHADER_HELLOWORLD_SEPERATESHADERS\SHADER_HELLOWORLD\DEBUG\VC120.PDB
^C:\USERS\SEAN-LI\DOCUMENTS\BITBUCKET\KDU\SEMESTER 6\3D PROGRAMMING\WEEK 10\SHADER_HELLOWORLD_SEPERATESHADERS\SHADER_HELLOWORLD\ANGLE_UTIL\VECTOR.CPP
C:\USERS\SEAN-LI\DOCUMENTS\BITBUCKET\KDU\SEMESTER 6\3D PROGRAMMING\WEEK 10\SHADER_HELLOWORLD_SEPERATESHADERS\SHADER_HELLOWORLD\DEBUG\VC120.PDB
^C:\USERS\SEAN-LI\DOCUMENTS\BITBUCKET\KDU\SEMESTER 6\3D PROGRAMMING\WEEK 10\SHADER_HELLOWORLD_SEPERATESHADERS\SHADER_HELLOWORLD\DEMO.CPP
C:\USERS\SEAN-LI\DOCUMENTS\BITBUCKET\KDU\SEMESTER 6\3D PROGRAMMING\WEEK 10\SHADER_HELLOWORLD_SEPERATESHADERS\SHADER_HELLOWORLD\DEBUG\VC120.PDB
C:\USERS\SEAN-LI\DOCUMENTS\BITBUCKET\KDU\SEMESTER 6\3D PROGRAMMING\WEEK 10\SHADER_HELLOWORLD_SEPERATESHADERS\SHADER_HELLOWORLD\DEBUG\VC120.IDB
C:\USERS\SEAN-LI\DOCUMENTS\BITBUCKET\KDU\SEMESTER 6\3D PROGRAMMING\WEEK 10\SHADER_HELLOWORLD_SEPERATESHADERS\SHADER_HELLOWORLD\DEBUG\DEMO.OBJ
