^C:\USERS\SEAN-LI\DOCUMENTS\BITBUCKET\KDU\SEMESTER 6\3D PROGRAMMING\WEEK 10\SHADER_HELLOWORLD_SEPERATESHADERS\SHADER_HELLOWORLD\DEBUG\DEMO.OBJ|C:\USERS\SEAN-LI\DOCUMENTS\BITBUCKET\KDU\SEMESTER 6\3D PROGRAMMING\WEEK 10\SHADER_HELLOWORLD_SEPERATESHADERS\SHADER_HELLOWORLD\DEBUG\GEOMETRY_UTILS.OBJ|C:\USERS\SEAN-LI\DOCUMENTS\BITBUCKET\KDU\SEMESTER 6\3D PROGRAMMING\WEEK 10\SHADER_HELLOWORLD_SEPERATESHADERS\SHADER_HELLOWORLD\DEBUG\MATRIX.OBJ|C:\USERS\SEAN-LI\DOCUMENTS\BITBUCKET\KDU\SEMESTER 6\3D PROGRAMMING\WEEK 10\SHADER_HELLOWORLD_SEPERATESHADERS\SHADER_HELLOWORLD\DEBUG\VECTOR.OBJ
C:\USERS\SEAN-LI\DOCUMENTS\BITBUCKET\KDU\SEMESTER 6\3D PROGRAMMING\WEEK 10\SHADER_HELLOWORLD_SEPERATESHADERS\DEBUG\SHADER_HELLOWORLD.EXE
C:\USERS\SEAN-LI\DOCUMENTS\BITBUCKET\KDU\SEMESTER 6\3D PROGRAMMING\WEEK 10\SHADER_HELLOWORLD_SEPERATESHADERS\DEBUG\SHADER_HELLOWORLD.PDB
