^D:\SEAN-LI\MAGICSQUARE\MAGICSQUARE\DEBUG\MAGICSQUARE.EXE.EMBED.MANIFEST.RES|D:\SEAN-LI\MAGICSQUARE\MAGICSQUARE\DEBUG\MAGICSQUARE.OBJ|D:\SEAN-LI\MAGICSQUARE\MAGICSQUARE\DEBUG\STDAFX.OBJ
D:\SEAN-LI\MAGICSQUARE\DEBUG\MAGICSQUARE.ILK
D:\SEAN-LI\MAGICSQUARE\DEBUG\MAGICSQUARE.EXE
D:\SEAN-LI\MAGICSQUARE\MAGICSQUARE\DEBUG\MAGICSQUARE.EXE.INTERMEDIATE.MANIFEST
D:\SEAN-LI\MAGICSQUARE\DEBUG\MAGICSQUARE.PDB
