^C:\USERS\SEAN-LI\DOCUMENTS\GITHUB\KDU_PROJECTS\SEMESTER 5\GRAPHICS PROGRAMMING\WEEK 2\GLFWHELLO\GLFWHELLO\MAIN.CPP
/c /I"C:\glfw-3.1.1.bin.WIN32\include" /ZI /nologo /W3 /WX- /Od /Oy- /D WIN32 /D _DEBUG /D _CONSOLE /D _LIB /D _UNICODE /D UNICODE /Gm /EHsc /RTC1 /MDd /GS /fp:precise /Zc:wchar_t /Zc:forScope /Fo"DEBUG\\" /Fd"DEBUG\VC120.PDB" /Gd /TP /analyze- C:\USERS\SEAN-LI\DOCUMENTS\GITHUB\KDU_PROJECTS\SEMESTER 5\GRAPHICS PROGRAMMING\WEEK 2\GLFWHELLO\GLFWHELLO\MAIN.CPP
^C:\USERS\SEAN-LI\DOCUMENTS\GITHUB\KDU_PROJECTS\SEMESTER 5\GRAPHICS PROGRAMMING\WEEK 2\GLFWHELLO\GLFWHELLO\MATRIX.CPP
/c /I"C:\glfw-3.1.1.bin.WIN32\include" /ZI /nologo /W3 /WX- /Od /Oy- /D WIN32 /D _DEBUG /D _CONSOLE /D _LIB /D _UNICODE /D UNICODE /Gm /EHsc /RTC1 /MDd /GS /fp:precise /Zc:wchar_t /Zc:forScope /Fo"DEBUG\\" /Fd"DEBUG\VC120.PDB" /Gd /TP /analyze- C:\USERS\SEAN-LI\DOCUMENTS\GITHUB\KDU_PROJECTS\SEMESTER 5\GRAPHICS PROGRAMMING\WEEK 2\GLFWHELLO\GLFWHELLO\MATRIX.CPP
^C:\USERS\SEAN-LI\DOCUMENTS\GITHUB\KDU_PROJECTS\SEMESTER 5\GRAPHICS PROGRAMMING\WEEK 2,3\GLFWHELLO\GLFWHELLO\MAIN.CPP
/c /I"C:\glfw-3.1.1.bin.WIN32\include" /ZI /nologo /W3 /WX- /Od /Oy- /D WIN32 /D _DEBUG /D _CONSOLE /D _LIB /D _UNICODE /D UNICODE /Gm /EHsc /RTC1 /MDd /GS /fp:precise /Zc:wchar_t /Zc:forScope /Fo"DEBUG\\" /Fd"DEBUG\VC120.PDB" /Gd /TP /analyze- C:\USERS\SEAN-LI\DOCUMENTS\GITHUB\KDU_PROJECTS\SEMESTER 5\GRAPHICS PROGRAMMING\WEEK 2,3\GLFWHELLO\GLFWHELLO\MAIN.CPP
^C:\USERS\SEAN-LI\DOCUMENTS\GITHUB\KDU_PROJECTS\SEMESTER 5\GRAPHICS PROGRAMMING\WEEK 2,3\GLFWHELLO\GLFWHELLO\MATRIX.CPP
/c /I"C:\glfw-3.1.1.bin.WIN32\include" /ZI /nologo /W3 /WX- /Od /Oy- /D WIN32 /D _DEBUG /D _CONSOLE /D _LIB /D _UNICODE /D UNICODE /Gm /EHsc /RTC1 /MDd /GS /fp:precise /Zc:wchar_t /Zc:forScope /Fo"DEBUG\\" /Fd"DEBUG\VC120.PDB" /Gd /TP /analyze- C:\USERS\SEAN-LI\DOCUMENTS\GITHUB\KDU_PROJECTS\SEMESTER 5\GRAPHICS PROGRAMMING\WEEK 2,3\GLFWHELLO\GLFWHELLO\MATRIX.CPP
^C:\USERS\SEAN-LI\DOCUMENTS\GITHUB\KDU_PROJECTS\SEMESTER 5\GRAPHICS PROGRAMMING\WEEK 2,3\GLFWHELLO - COPY\GLFWHELLO\MAIN.CPP
/c /I"C:\glfw-3.1.1.bin.WIN32\include" /ZI /nologo /W3 /WX- /Od /Oy- /D WIN32 /D _DEBUG /D _CONSOLE /D _LIB /D _UNICODE /D UNICODE /Gm /EHsc /RTC1 /MDd /GS /fp:precise /Zc:wchar_t /Zc:forScope /Fo"DEBUG\\" /Fd"DEBUG\VC120.PDB" /Gd /TP /analyze- C:\USERS\SEAN-LI\DOCUMENTS\GITHUB\KDU_PROJECTS\SEMESTER 5\GRAPHICS PROGRAMMING\WEEK 2,3\GLFWHELLO - COPY\GLFWHELLO\MAIN.CPP
^C:\USERS\SEAN-LI\DOCUMENTS\GITHUB\KDU_PROJECTS\SEMESTER 5\GRAPHICS PROGRAMMING\WEEK 2,3\GLFWHELLO - COPY\GLFWHELLO\MATRIX.CPP
/c /I"C:\glfw-3.1.1.bin.WIN32\include" /ZI /nologo /W3 /WX- /Od /Oy- /D WIN32 /D _DEBUG /D _CONSOLE /D _LIB /D _UNICODE /D UNICODE /Gm /EHsc /RTC1 /MDd /GS /fp:precise /Zc:wchar_t /Zc:forScope /Fo"DEBUG\\" /Fd"DEBUG\VC120.PDB" /Gd /TP /analyze- C:\USERS\SEAN-LI\DOCUMENTS\GITHUB\KDU_PROJECTS\SEMESTER 5\GRAPHICS PROGRAMMING\WEEK 2,3\GLFWHELLO - COPY\GLFWHELLO\MATRIX.CPP
