^D:\SEAN-LI\MAGICSQUARE\MAGICSQUARE\MAGICSQUARE.CPP
/c /ZI /nologo /W3 /WX- /Od /Oy- /D WIN32 /D _DEBUG /D _CONSOLE /D _UNICODE /D UNICODE /Gm /EHsc /RTC1 /MDd /GS /fp:precise /Zc:wchar_t /Zc:forScope /Fo"Debug\\" /Fd"Debug\vc100.pdb" /Gd /TP /analyze- /errorReport:prompt D:\SEAN-LI\MAGICSQUARE\MAGICSQUARE\MAGICSQUARE.CPP
^D:\SEAN-LI\MAGICSQUARE\MAGICSQUARE\STDAFX.CPP
/c /ZI /nologo /W3 /WX- /Od /Oy- /D WIN32 /D _DEBUG /D _CONSOLE /D _UNICODE /D UNICODE /Gm /EHsc /RTC1 /MDd /GS /fp:precise /Zc:wchar_t /Zc:forScope /Fo"Debug\\" /Fd"Debug\vc100.pdb" /Gd /TP /analyze- /errorReport:prompt D:\SEAN-LI\MAGICSQUARE\MAGICSQUARE\STDAFX.CPP
