^C:\USERS\SEAN-LI\DOCUMENTS\BITBUCKET\KDU\SEMESTER 6\3D PROGRAMMING\WEEK 4\SHADER_HELLOWORLD\SHADER_HELLOWORLD\DEMO.CPP
/c /I"C:\Users\Sean-Li\Documents\BitBucket\KDU\Semester 6\3D Programming\gles2-starter-win32" /I"C:\Program Files (x86)\FMOD SoundSystem\FMOD Programmers API Windows\api\inc" /ZI /nologo /W3 /WX- /Od /Oy- /D WIN32 /D _DEBUG /D _WINDOWS /D _UNICODE /D UNICODE /Gm /EHsc /RTC1 /MDd /GS /fp:precise /Zc:wchar_t /Zc:forScope /Fo"DEBUG\\" /Fd"DEBUG\VC120.PDB" /Gd /TP /analyze- C:\USERS\SEAN-LI\DOCUMENTS\BITBUCKET\KDU\SEMESTER 6\3D PROGRAMMING\WEEK 4\SHADER_HELLOWORLD\SHADER_HELLOWORLD\DEMO.CPP
^C:\USERS\SEAN-LI\DOCUMENTS\BITBUCKET\KDU\SEMESTER 6\3D PROGRAMMING\WEEK 5\SHADER_HELLOWORLD\SHADER_HELLOWORLD\DEMO.CPP
/c /I"C:\Users\Sean-Li\Documents\BitBucket\KDU\Semester 6\3D Programming\gles2-starter-win32" /I"C:\Program Files (x86)\FMOD SoundSystem\FMOD Programmers API Windows\api\inc" /ZI /nologo /W3 /WX- /Od /Oy- /D WIN32 /D _DEBUG /D _WINDOWS /D _UNICODE /D UNICODE /Gm /EHsc /RTC1 /MDd /GS /fp:precise /Zc:wchar_t /Zc:forScope /Fo"DEBUG\\" /Fd"DEBUG\VC120.PDB" /Gd /TP /analyze- C:\USERS\SEAN-LI\DOCUMENTS\BITBUCKET\KDU\SEMESTER 6\3D PROGRAMMING\WEEK 5\SHADER_HELLOWORLD\SHADER_HELLOWORLD\DEMO.CPP
^C:\USERS\SEAN-LI\DOCUMENTS\BITBUCKET\KDU\SEMESTER 6\3D PROGRAMMING\WEEK 6\SHADER_HELLOWORLD\SHADER_HELLOWORLD\DEMO.CPP
/c /I"C:\Users\Sean-Li\Documents\BitBucket\KDU\Semester 6\3D Programming\gles2-starter-win32" /I"C:\Program Files (x86)\FMOD SoundSystem\FMOD Programmers API Windows\api\inc" /ZI /nologo /W3 /WX- /Od /Oy- /D WIN32 /D _DEBUG /D _WINDOWS /D _UNICODE /D UNICODE /Gm /EHsc /RTC1 /MDd /GS /fp:precise /Zc:wchar_t /Zc:forScope /Fo"DEBUG\\" /Fd"DEBUG\VC120.PDB" /Gd /TP /analyze- C:\USERS\SEAN-LI\DOCUMENTS\BITBUCKET\KDU\SEMESTER 6\3D PROGRAMMING\WEEK 6\SHADER_HELLOWORLD\SHADER_HELLOWORLD\DEMO.CPP
^C:\USERS\SEAN-LI\DOCUMENTS\BITBUCKET\KDU\SEMESTER 6\3D PROGRAMMING\WEEK 6\SHADER_HELLOWORLD\SHADER_HELLOWORLD\ANGLE_UTIL\GEOMETRY_UTILS.CPP
/c /I"C:\Users\Sean-Li\Documents\BitBucket\KDU\Semester 6\3D Programming\gles2-starter-win32" /I"C:\Program Files (x86)\FMOD SoundSystem\FMOD Programmers API Windows\api\inc" /ZI /nologo /W3 /WX- /Od /Oy- /D WIN32 /D _DEBUG /D _WINDOWS /D _UNICODE /D UNICODE /Gm /EHsc /RTC1 /MDd /GS /fp:precise /Zc:wchar_t /Zc:forScope /Fo"DEBUG\\" /Fd"DEBUG\VC120.PDB" /Gd /TP /analyze- C:\USERS\SEAN-LI\DOCUMENTS\BITBUCKET\KDU\SEMESTER 6\3D PROGRAMMING\WEEK 6\SHADER_HELLOWORLD\SHADER_HELLOWORLD\ANGLE_UTIL\GEOMETRY_UTILS.CPP
^C:\USERS\SEAN-LI\DOCUMENTS\BITBUCKET\KDU\SEMESTER 6\3D PROGRAMMING\WEEK 6\SHADER_HELLOWORLD\SHADER_HELLOWORLD\ANGLE_UTIL\MATRIX.CPP
/c /I"C:\Users\Sean-Li\Documents\BitBucket\KDU\Semester 6\3D Programming\gles2-starter-win32" /I"C:\Program Files (x86)\FMOD SoundSystem\FMOD Programmers API Windows\api\inc" /ZI /nologo /W3 /WX- /Od /Oy- /D WIN32 /D _DEBUG /D _WINDOWS /D _UNICODE /D UNICODE /Gm /EHsc /RTC1 /MDd /GS /fp:precise /Zc:wchar_t /Zc:forScope /Fo"DEBUG\\" /Fd"DEBUG\VC120.PDB" /Gd /TP /analyze- C:\USERS\SEAN-LI\DOCUMENTS\BITBUCKET\KDU\SEMESTER 6\3D PROGRAMMING\WEEK 6\SHADER_HELLOWORLD\SHADER_HELLOWORLD\ANGLE_UTIL\MATRIX.CPP
^C:\USERS\SEAN-LI\DOCUMENTS\BITBUCKET\KDU\SEMESTER 6\3D PROGRAMMING\WEEK 6\SHADER_HELLOWORLD\SHADER_HELLOWORLD\ANGLE_UTIL\VECTOR.CPP
/c /I"C:\Users\Sean-Li\Documents\BitBucket\KDU\Semester 6\3D Programming\gles2-starter-win32" /I"C:\Program Files (x86)\FMOD SoundSystem\FMOD Programmers API Windows\api\inc" /ZI /nologo /W3 /WX- /Od /Oy- /D WIN32 /D _DEBUG /D _WINDOWS /D _UNICODE /D UNICODE /Gm /EHsc /RTC1 /MDd /GS /fp:precise /Zc:wchar_t /Zc:forScope /Fo"DEBUG\\" /Fd"DEBUG\VC120.PDB" /Gd /TP /analyze- C:\USERS\SEAN-LI\DOCUMENTS\BITBUCKET\KDU\SEMESTER 6\3D PROGRAMMING\WEEK 6\SHADER_HELLOWORLD\SHADER_HELLOWORLD\ANGLE_UTIL\VECTOR.CPP
