^C:\USERS\SEAN-LI\DOCUMENTS\BITBUCKET\KDU\SEMESTER 6\3D PROGRAMMING\WEEK 4\SHADER_HELLOWORLD\SHADER_HELLOWORLD\DEBUG\DEMO.OBJ
C:\USERS\SEAN-LI\DOCUMENTS\BITBUCKET\KDU\SEMESTER 6\3D PROGRAMMING\GLES2-STARTER-WIN32\LIBGLESV2.LIB
C:\USERS\SEAN-LI\DOCUMENTS\BITBUCKET\KDU\SEMESTER 6\3D PROGRAMMING\GLES2-STARTER-WIN32\LIBEGL.LIB
C:\USERS\SEAN-LI\DOCUMENTS\BITBUCKET\KDU\SEMESTER 6\3D PROGRAMMING\GLES2-STARTER-WIN32\GLFW3DLL.LIB
C:\PROGRAM FILES (X86)\FMOD SOUNDSYSTEM\FMOD PROGRAMMERS API WINDOWS\API\LIB\FMODEX_VC.LIB
C:\PROGRAM FILES (X86)\WINDOWS KITS\8.1\LIB\WINV6.3\UM\X86\KERNEL32.LIB
C:\PROGRAM FILES (X86)\WINDOWS KITS\8.1\LIB\WINV6.3\UM\X86\USER32.LIB
C:\PROGRAM FILES (X86)\WINDOWS KITS\8.1\LIB\WINV6.3\UM\X86\GDI32.LIB
C:\PROGRAM FILES (X86)\WINDOWS KITS\8.1\LIB\WINV6.3\UM\X86\WINSPOOL.LIB
C:\PROGRAM FILES (X86)\WINDOWS KITS\8.1\LIB\WINV6.3\UM\X86\COMDLG32.LIB
C:\PROGRAM FILES (X86)\WINDOWS KITS\8.1\LIB\WINV6.3\UM\X86\ADVAPI32.LIB
C:\PROGRAM FILES (X86)\WINDOWS KITS\8.1\LIB\WINV6.3\UM\X86\SHELL32.LIB
C:\PROGRAM FILES (X86)\WINDOWS KITS\8.1\LIB\WINV6.3\UM\X86\OLE32.LIB
C:\PROGRAM FILES (X86)\WINDOWS KITS\8.1\LIB\WINV6.3\UM\X86\OLEAUT32.LIB
C:\PROGRAM FILES (X86)\WINDOWS KITS\8.1\LIB\WINV6.3\UM\X86\UUID.LIB
C:\PROGRAM FILES (X86)\WINDOWS KITS\8.1\LIB\WINV6.3\UM\X86\ODBC32.LIB
C:\PROGRAM FILES (X86)\WINDOWS KITS\8.1\LIB\WINV6.3\UM\X86\ODBCCP32.LIB
C:\USERS\SEAN-LI\DOCUMENTS\BITBUCKET\KDU\SEMESTER 6\3D PROGRAMMING\WEEK 4\SHADER_HELLOWORLD\SHADER_HELLOWORLD\DEBUG\DEMO.OBJ
C:\WINDOWS\GLOBALIZATION\SORTING\SORTDEFAULT.NLS
C:\PROGRAM FILES (X86)\MICROSOFT VISUAL STUDIO 12.0\VC\BIN\1033\LINKUI.DLL
C:\PROGRAM FILES (X86)\MICROSOFT VISUAL STUDIO 12.0\VC\LIB\MSVCPRTD.LIB
C:\PROGRAM FILES (X86)\MICROSOFT VISUAL STUDIO 12.0\VC\LIB\MSVCRTD.LIB
C:\PROGRAM FILES (X86)\MICROSOFT VISUAL STUDIO 12.0\VC\LIB\OLDNAMES.LIB
C:\PROGRAM FILES (X86)\WINDOWS KITS\8.1\BIN\X86\RC.EXE
C:\PROGRAM FILES (X86)\MICROSOFT VISUAL STUDIO 12.0\VC\BIN\CVTRES.EXE
C:\WINDOWS\SYSTEM32\TZRES.DLL
^C:\USERS\SEAN-LI\DOCUMENTS\BITBUCKET\KDU\SEMESTER 6\3D PROGRAMMING\WEEK 5\SHADER_HELLOWORLD\SHADER_HELLOWORLD\DEBUG\DEMO.OBJ
C:\USERS\SEAN-LI\DOCUMENTS\BITBUCKET\KDU\SEMESTER 6\3D PROGRAMMING\GLES2-STARTER-WIN32\LIBGLESV2.LIB
C:\USERS\SEAN-LI\DOCUMENTS\BITBUCKET\KDU\SEMESTER 6\3D PROGRAMMING\GLES2-STARTER-WIN32\LIBEGL.LIB
C:\USERS\SEAN-LI\DOCUMENTS\BITBUCKET\KDU\SEMESTER 6\3D PROGRAMMING\GLES2-STARTER-WIN32\GLFW3DLL.LIB
C:\PROGRAM FILES (X86)\FMOD SOUNDSYSTEM\FMOD PROGRAMMERS API WINDOWS\API\LIB\FMODEX_VC.LIB
C:\PROGRAM FILES (X86)\WINDOWS KITS\8.1\LIB\WINV6.3\UM\X86\KERNEL32.LIB
C:\PROGRAM FILES (X86)\WINDOWS KITS\8.1\LIB\WINV6.3\UM\X86\USER32.LIB
C:\PROGRAM FILES (X86)\WINDOWS KITS\8.1\LIB\WINV6.3\UM\X86\GDI32.LIB
C:\PROGRAM FILES (X86)\WINDOWS KITS\8.1\LIB\WINV6.3\UM\X86\WINSPOOL.LIB
C:\PROGRAM FILES (X86)\WINDOWS KITS\8.1\LIB\WINV6.3\UM\X86\COMDLG32.LIB
C:\PROGRAM FILES (X86)\WINDOWS KITS\8.1\LIB\WINV6.3\UM\X86\ADVAPI32.LIB
C:\PROGRAM FILES (X86)\WINDOWS KITS\8.1\LIB\WINV6.3\UM\X86\SHELL32.LIB
C:\PROGRAM FILES (X86)\WINDOWS KITS\8.1\LIB\WINV6.3\UM\X86\OLE32.LIB
C:\PROGRAM FILES (X86)\WINDOWS KITS\8.1\LIB\WINV6.3\UM\X86\OLEAUT32.LIB
C:\PROGRAM FILES (X86)\WINDOWS KITS\8.1\LIB\WINV6.3\UM\X86\UUID.LIB
C:\PROGRAM FILES (X86)\WINDOWS KITS\8.1\LIB\WINV6.3\UM\X86\ODBC32.LIB
C:\PROGRAM FILES (X86)\WINDOWS KITS\8.1\LIB\WINV6.3\UM\X86\ODBCCP32.LIB
C:\USERS\SEAN-LI\DOCUMENTS\BITBUCKET\KDU\SEMESTER 6\3D PROGRAMMING\WEEK 5\SHADER_HELLOWORLD\SHADER_HELLOWORLD\DEBUG\DEMO.OBJ
C:\WINDOWS\GLOBALIZATION\SORTING\SORTDEFAULT.NLS
C:\PROGRAM FILES (X86)\MICROSOFT VISUAL STUDIO 12.0\VC\BIN\1033\LINKUI.DLL
C:\PROGRAM FILES (X86)\MICROSOFT VISUAL STUDIO 12.0\VC\LIB\MSVCPRTD.LIB
C:\PROGRAM FILES (X86)\MICROSOFT VISUAL STUDIO 12.0\VC\LIB\MSVCRTD.LIB
C:\PROGRAM FILES (X86)\MICROSOFT VISUAL STUDIO 12.0\VC\LIB\OLDNAMES.LIB
C:\PROGRAM FILES (X86)\WINDOWS KITS\8.1\BIN\X86\RC.EXE
C:\PROGRAM FILES (X86)\MICROSOFT VISUAL STUDIO 12.0\VC\BIN\CVTRES.EXE
C:\WINDOWS\SYSTEM32\TZRES.DLL
^C:\USERS\SEAN-LI\DOCUMENTS\BITBUCKET\KDU\SEMESTER 6\3D PROGRAMMING\WEEK 6\SHADER_HELLOWORLD\SHADER_HELLOWORLD\DEBUG\DEMO.OBJ|C:\USERS\SEAN-LI\DOCUMENTS\BITBUCKET\KDU\SEMESTER 6\3D PROGRAMMING\WEEK 6\SHADER_HELLOWORLD\SHADER_HELLOWORLD\DEBUG\GEOMETRY_UTILS.OBJ|C:\USERS\SEAN-LI\DOCUMENTS\BITBUCKET\KDU\SEMESTER 6\3D PROGRAMMING\WEEK 6\SHADER_HELLOWORLD\SHADER_HELLOWORLD\DEBUG\MATRIX.OBJ|C:\USERS\SEAN-LI\DOCUMENTS\BITBUCKET\KDU\SEMESTER 6\3D PROGRAMMING\WEEK 6\SHADER_HELLOWORLD\SHADER_HELLOWORLD\DEBUG\VECTOR.OBJ
C:\USERS\SEAN-LI\DOCUMENTS\BITBUCKET\KDU\SEMESTER 6\3D PROGRAMMING\GLES2-STARTER-WIN32\LIBGLESV2.LIB
C:\USERS\SEAN-LI\DOCUMENTS\BITBUCKET\KDU\SEMESTER 6\3D PROGRAMMING\GLES2-STARTER-WIN32\LIBEGL.LIB
C:\USERS\SEAN-LI\DOCUMENTS\BITBUCKET\KDU\SEMESTER 6\3D PROGRAMMING\GLES2-STARTER-WIN32\GLFW3DLL.LIB
C:\PROGRAM FILES (X86)\FMOD SOUNDSYSTEM\FMOD PROGRAMMERS API WINDOWS\API\LIB\FMODEX_VC.LIB
C:\PROGRAM FILES (X86)\WINDOWS KITS\8.1\LIB\WINV6.3\UM\X86\KERNEL32.LIB
C:\PROGRAM FILES (X86)\WINDOWS KITS\8.1\LIB\WINV6.3\UM\X86\USER32.LIB
C:\PROGRAM FILES (X86)\WINDOWS KITS\8.1\LIB\WINV6.3\UM\X86\GDI32.LIB
C:\PROGRAM FILES (X86)\WINDOWS KITS\8.1\LIB\WINV6.3\UM\X86\WINSPOOL.LIB
C:\PROGRAM FILES (X86)\WINDOWS KITS\8.1\LIB\WINV6.3\UM\X86\COMDLG32.LIB
C:\PROGRAM FILES (X86)\WINDOWS KITS\8.1\LIB\WINV6.3\UM\X86\ADVAPI32.LIB
C:\PROGRAM FILES (X86)\WINDOWS KITS\8.1\LIB\WINV6.3\UM\X86\SHELL32.LIB
C:\PROGRAM FILES (X86)\WINDOWS KITS\8.1\LIB\WINV6.3\UM\X86\OLE32.LIB
C:\PROGRAM FILES (X86)\WINDOWS KITS\8.1\LIB\WINV6.3\UM\X86\OLEAUT32.LIB
C:\PROGRAM FILES (X86)\WINDOWS KITS\8.1\LIB\WINV6.3\UM\X86\UUID.LIB
C:\PROGRAM FILES (X86)\WINDOWS KITS\8.1\LIB\WINV6.3\UM\X86\ODBC32.LIB
C:\PROGRAM FILES (X86)\WINDOWS KITS\8.1\LIB\WINV6.3\UM\X86\ODBCCP32.LIB
C:\USERS\SEAN-LI\DOCUMENTS\BITBUCKET\KDU\SEMESTER 6\3D PROGRAMMING\WEEK 6\SHADER_HELLOWORLD\SHADER_HELLOWORLD\DEBUG\GEOMETRY_UTILS.OBJ
C:\USERS\SEAN-LI\DOCUMENTS\BITBUCKET\KDU\SEMESTER 6\3D PROGRAMMING\WEEK 6\SHADER_HELLOWORLD\SHADER_HELLOWORLD\DEBUG\MATRIX.OBJ
C:\USERS\SEAN-LI\DOCUMENTS\BITBUCKET\KDU\SEMESTER 6\3D PROGRAMMING\WEEK 6\SHADER_HELLOWORLD\SHADER_HELLOWORLD\DEBUG\VECTOR.OBJ
C:\USERS\SEAN-LI\DOCUMENTS\BITBUCKET\KDU\SEMESTER 6\3D PROGRAMMING\WEEK 6\SHADER_HELLOWORLD\SHADER_HELLOWORLD\DEBUG\DEMO.OBJ
C:\WINDOWS\GLOBALIZATION\SORTING\SORTDEFAULT.NLS
C:\PROGRAM FILES (X86)\MICROSOFT VISUAL STUDIO 12.0\VC\BIN\1033\LINKUI.DLL
C:\PROGRAM FILES (X86)\MICROSOFT VISUAL STUDIO 12.0\VC\LIB\MSVCPRTD.LIB
C:\PROGRAM FILES (X86)\MICROSOFT VISUAL STUDIO 12.0\VC\LIB\MSVCRTD.LIB
C:\PROGRAM FILES (X86)\MICROSOFT VISUAL STUDIO 12.0\VC\LIB\OLDNAMES.LIB
C:\PROGRAM FILES (X86)\WINDOWS KITS\8.1\BIN\X86\RC.EXE
C:\PROGRAM FILES (X86)\MICROSOFT VISUAL STUDIO 12.0\VC\BIN\CVTRES.EXE
C:\WINDOWS\SYSTEM32\TZRES.DLL
