^C:\USERS\SEAN-LI\DOCUMENTS\GITHUB\KDU_PROJECTS\SEMESTER 6\3D PROGRAMMING\WEEK 1\SHADER_HELLOWORLD\SHADER_HELLOWORLD\DEBUG\DEMO.OBJ
/OUT:"C:\USERS\SEAN-LI\DOCUMENTS\GITHUB\KDU_PROJECTS\SEMESTER 6\3D PROGRAMMING\WEEK 1\SHADER_HELLOWORLD\DEBUG\SHADER_HELLOWORLD.EXE" /INCREMENTAL:NO /NOLOGO /LIBPATH:"C:\USERS\SEAN-LI\DOCUMENTS\GITHUB\KDU_PROJECTS\SEMESTER 6\3D PROGRAMMING\GLES2" LIBGLESV2.LIB LIBEGL.LIB GLFW3DLL.LIB KERNEL32.LIB USER32.LIB GDI32.LIB WINSPOOL.LIB COMDLG32.LIB ADVAPI32.LIB SHELL32.LIB OLE32.LIB OLEAUT32.LIB UUID.LIB ODBC32.LIB ODBCCP32.LIB /MANIFEST /MANIFESTUAC:"level='asInvoker' uiAccess='false'" /manifest:embed /Debug /PDB:"C:\USERS\SEAN-LI\DOCUMENTS\GITHUB\KDU_PROJECTS\SEMESTER 6\3D PROGRAMMING\WEEK 1\SHADER_HELLOWORLD\DEBUG\SHADER_HELLOWORLD.PDB" /SUBSYSTEM:CONSOLE /TLBID:1 /DYNAMICBASE /NXCOMPAT /IMPLIB:"C:\USERS\SEAN-LI\DOCUMENTS\GITHUB\KDU_PROJECTS\SEMESTER 6\3D PROGRAMMING\WEEK 1\SHADER_HELLOWORLD\DEBUG\SHADER_HELLOWORLD.LIB" /MACHINE:X86 DEBUG\DEMO.OBJ
^C:\USERS\SEAN-LI\DOCUMENTS\GITHUB\KDU_PROJECTS\SEMESTER 6\3D PROGRAMMING\WEEK 2\SHADER_HELLOWORLD\SHADER_HELLOWORLD\DEBUG\DEMO.OBJ
/OUT:"C:\USERS\SEAN-LI\DOCUMENTS\GITHUB\KDU_PROJECTS\SEMESTER 6\3D PROGRAMMING\WEEK 2\SHADER_HELLOWORLD\DEBUG\SHADER_HELLOWORLD.EXE" /INCREMENTAL:NO /NOLOGO /LIBPATH:"C:\USERS\SEAN-LI\DOCUMENTS\GITHUB\KDU_PROJECTS\SEMESTER 6\3D PROGRAMMING\GLES2" LIBGLESV2.LIB LIBEGL.LIB GLFW3DLL.LIB KERNEL32.LIB USER32.LIB GDI32.LIB WINSPOOL.LIB COMDLG32.LIB ADVAPI32.LIB SHELL32.LIB OLE32.LIB OLEAUT32.LIB UUID.LIB ODBC32.LIB ODBCCP32.LIB /MANIFEST /MANIFESTUAC:"level='asInvoker' uiAccess='false'" /manifest:embed /Debug /PDB:"C:\USERS\SEAN-LI\DOCUMENTS\GITHUB\KDU_PROJECTS\SEMESTER 6\3D PROGRAMMING\WEEK 2\SHADER_HELLOWORLD\DEBUG\SHADER_HELLOWORLD.PDB" /SUBSYSTEM:CONSOLE /TLBID:1 /DYNAMICBASE /NXCOMPAT /IMPLIB:"C:\USERS\SEAN-LI\DOCUMENTS\GITHUB\KDU_PROJECTS\SEMESTER 6\3D PROGRAMMING\WEEK 2\SHADER_HELLOWORLD\DEBUG\SHADER_HELLOWORLD.LIB" /MACHINE:X86 DEBUG\DEMO.OBJ
^C:\USERS\SEAN-LI\DOCUMENTS\GITHUB\KDU_PROJECTS\SEMESTER 6\3D PROGRAMMING\WEEK 4\SHADER_HELLOWORLD\SHADER_HELLOWORLD\DEBUG\DEMO.OBJ
/OUT:"C:\USERS\SEAN-LI\DOCUMENTS\GITHUB\KDU_PROJECTS\SEMESTER 6\3D PROGRAMMING\WEEK 4\SHADER_HELLOWORLD\DEBUG\SHADER_HELLOWORLD.EXE" /INCREMENTAL:NO /NOLOGO /LIBPATH:"C:\USERS\SEAN-LI\DOCUMENTS\GITHUB\KDU_PROJECTS\SEMESTER 6\3D PROGRAMMING\GLES2" LIBGLESV2.LIB LIBEGL.LIB GLFW3DLL.LIB KERNEL32.LIB USER32.LIB GDI32.LIB WINSPOOL.LIB COMDLG32.LIB ADVAPI32.LIB SHELL32.LIB OLE32.LIB OLEAUT32.LIB UUID.LIB ODBC32.LIB ODBCCP32.LIB /MANIFEST /MANIFESTUAC:"level='asInvoker' uiAccess='false'" /manifest:embed /Debug /PDB:"C:\USERS\SEAN-LI\DOCUMENTS\GITHUB\KDU_PROJECTS\SEMESTER 6\3D PROGRAMMING\WEEK 4\SHADER_HELLOWORLD\DEBUG\SHADER_HELLOWORLD.PDB" /SUBSYSTEM:CONSOLE /TLBID:1 /DYNAMICBASE /NXCOMPAT /IMPLIB:"C:\USERS\SEAN-LI\DOCUMENTS\GITHUB\KDU_PROJECTS\SEMESTER 6\3D PROGRAMMING\WEEK 4\SHADER_HELLOWORLD\DEBUG\SHADER_HELLOWORLD.LIB" /MACHINE:X86 DEBUG\DEMO.OBJ
^C:\USERS\SEAN-LI\DOCUMENTS\GITHUB\KDU_PROJECTS\SEMESTER 6\3D PROGRAMMING\WEEK 3\SHADER_HELLOWORLD\SHADER_HELLOWORLD\DEBUG\DEMO.OBJ
/OUT:"C:\USERS\SEAN-LI\DOCUMENTS\GITHUB\KDU_PROJECTS\SEMESTER 6\3D PROGRAMMING\WEEK 3\SHADER_HELLOWORLD\DEBUG\SHADER_HELLOWORLD.EXE" /INCREMENTAL:NO /NOLOGO /LIBPATH:"C:\USERS\SEAN-LI\DOCUMENTS\GITHUB\KDU_PROJECTS\SEMESTER 6\3D PROGRAMMING\GLES2" LIBGLESV2.LIB LIBEGL.LIB GLFW3DLL.LIB KERNEL32.LIB USER32.LIB GDI32.LIB WINSPOOL.LIB COMDLG32.LIB ADVAPI32.LIB SHELL32.LIB OLE32.LIB OLEAUT32.LIB UUID.LIB ODBC32.LIB ODBCCP32.LIB /MANIFEST /MANIFESTUAC:"level='asInvoker' uiAccess='false'" /manifest:embed /Debug /PDB:"C:\USERS\SEAN-LI\DOCUMENTS\GITHUB\KDU_PROJECTS\SEMESTER 6\3D PROGRAMMING\WEEK 3\SHADER_HELLOWORLD\DEBUG\SHADER_HELLOWORLD.PDB" /SUBSYSTEM:CONSOLE /TLBID:1 /DYNAMICBASE /NXCOMPAT /IMPLIB:"C:\USERS\SEAN-LI\DOCUMENTS\GITHUB\KDU_PROJECTS\SEMESTER 6\3D PROGRAMMING\WEEK 3\SHADER_HELLOWORLD\DEBUG\SHADER_HELLOWORLD.LIB" /MACHINE:X86 DEBUG\DEMO.OBJ
