^F:\KDU\SEMESTER 3\DATASTRUCTURES & ALGORITHMS\WEEK 3\VECTOR\VECTOR\DEBUG\STDAFX.OBJ|F:\KDU\SEMESTER 3\DATASTRUCTURES & ALGORITHMS\WEEK 3\VECTOR\VECTOR\DEBUG\VECTOR.EXE.EMBED.MANIFEST.RES|F:\KDU\SEMESTER 3\DATASTRUCTURES & ALGORITHMS\WEEK 3\VECTOR\VECTOR\DEBUG\VECTOR.OBJ
F:\KDU\SEMESTER 3\DATASTRUCTURES & ALGORITHMS\WEEK 3\VECTOR\DEBUG\VECTOR.ILK
F:\KDU\SEMESTER 3\DATASTRUCTURES & ALGORITHMS\WEEK 3\VECTOR\DEBUG\VECTOR.EXE
F:\KDU\SEMESTER 3\DATASTRUCTURES & ALGORITHMS\WEEK 3\VECTOR\VECTOR\DEBUG\VECTOR.EXE.INTERMEDIATE.MANIFEST
F:\KDU\SEMESTER 3\DATASTRUCTURES & ALGORITHMS\WEEK 3\VECTOR\DEBUG\VECTOR.PDB
^I:\KDU\SEMESTER 3\DATASTRUCTURES & ALGORITHMS\WEEK 3\VECTOR\VECTOR\DEBUG\STDAFX.OBJ|I:\KDU\SEMESTER 3\DATASTRUCTURES & ALGORITHMS\WEEK 3\VECTOR\VECTOR\DEBUG\VECTOR.EXE.EMBED.MANIFEST.RES|I:\KDU\SEMESTER 3\DATASTRUCTURES & ALGORITHMS\WEEK 3\VECTOR\VECTOR\DEBUG\VECTOR.OBJ
I:\KDU\SEMESTER 3\DATASTRUCTURES & ALGORITHMS\WEEK 3\VECTOR\DEBUG\VECTOR.ILK
I:\KDU\SEMESTER 3\DATASTRUCTURES & ALGORITHMS\WEEK 3\VECTOR\DEBUG\VECTOR.EXE
I:\KDU\SEMESTER 3\DATASTRUCTURES & ALGORITHMS\WEEK 3\VECTOR\VECTOR\DEBUG\VECTOR.EXE.INTERMEDIATE.MANIFEST
I:\KDU\SEMESTER 3\DATASTRUCTURES & ALGORITHMS\WEEK 3\VECTOR\DEBUG\VECTOR.PDB
