^C:\USERS\SEAN-LI\DOCUMENTS\BITBUCKET\KDU\SEMESTER 7\GAMEENGINE\SEANENGINE\SEANENGINE\SEANENGINE.CPP
C:\USERS\SEAN-LI\DOCUMENTS\BITBUCKET\KDU\SEMESTER 7\GAMEENGINE\SEANENGINE\SEANENGINE\DEBUG\VC140.PDB
C:\USERS\SEAN-LI\DOCUMENTS\BITBUCKET\KDU\SEMESTER 7\GAMEENGINE\SEANENGINE\SEANENGINE\DEBUG\VC140.IDB
