^D:\LECTURERSHAREDFOLDER\DSA\MAGICSQUARE\MAGICSQUARE.CPP|D:\LECTURERSHAREDFOLDER\DSA\MAGICSQUARE\STDAFX.CPP
D:\LECTURERSHAREDFOLDER\DSA\MAGICSQUARE\DEBUG\MAGICSQUARE.OBJ
D:\LECTURERSHAREDFOLDER\DSA\MAGICSQUARE\DEBUG\STDAFX.OBJ
^D:\LECTURERSHAREDFOLDER\DSA\MAGICSQUARE\MAGICSQUARE.CPP
D:\LECTURERSHAREDFOLDER\DSA\MAGICSQUARE\DEBUG\VC100.PDB
D:\LECTURERSHAREDFOLDER\DSA\MAGICSQUARE\DEBUG\MAGICSQUARE.OBJ
^D:\LECTURERSHAREDFOLDER\DSA\MAGICSQUARE\STDAFX.CPP
D:\LECTURERSHAREDFOLDER\DSA\MAGICSQUARE\DEBUG\VC100.PDB
