^C:\USERS\AREA51STUDENT\DOCUMENTS\VISUAL STUDIO 2010\PROJECTS\GAMEENGINE_\GAMEENGINE_\MAIN.CPP
/c /I"C:\Users\Area51Student\Documents\Visual Studio 2010\Projects\OpenSceneGraph-3.0.1-VS10.0.30319-x86-debug-12741\OpenSceneGraph-3.0.1-VS10.0.30319-x86-debug-12741\include" /I"C:\Users\Area51Student\Documents\Visual Studio 2010\Projects\OpenSceneGraph-3.0.1-VS10.0.30319-x86-release-12741\OpenSceneGraph-3.0.1-VS10.0.30319-x86-release-12741\include" /ZI /nologo /W3 /WX- /Od /Oy- /D WIN32 /D _DEBUG /D _CONSOLE /D _UNICODE /D UNICODE /Gm /EHsc /RTC1 /MDd /GS /fp:precise /Zc:wchar_t /Zc:forScope /Fo"Debug\\" /Fd"Debug\vc100.pdb" /Gd /TP /analyze- /errorReport:prompt C:\USERS\AREA51STUDENT\DOCUMENTS\VISUAL STUDIO 2010\PROJECTS\GAMEENGINE_\GAMEENGINE_\MAIN.CPP
^C:\USERS\SEAN-LI\DOCUMENTS\BITBUCKET\KDU\SEMESTER 7\GAMEENGINE\GAMEENGINE_\GAMEENGINE_\MAIN.CPP
/c /I"C:\Users\Sean-Li\Documents\BitBucket\KDU\Semester 7\GameEngine\OpenSceneGraph-3.0.1-VS10.0.30319-x86-release-12741\include" /I"C:\Users\Sean-Li\Documents\BitBucket\KDU\Semester 7\GameEngine\OpenSceneGraph-3.0.1-VS10.0.30319-x86-debug-12741\include" /ZI /nologo /W3 /WX- /Od /Oy- /D WIN32 /D _DEBUG /D _CONSOLE /D _UNICODE /D UNICODE /Gm /EHsc /RTC1 /MDd /GS /fp:precise /Zc:wchar_t /Zc:forScope /Fo"Debug\\" /Fd"Debug\vc100.pdb" /Gd /TP /analyze- /errorReport:prompt C:\USERS\SEAN-LI\DOCUMENTS\BITBUCKET\KDU\SEMESTER 7\GAMEENGINE\GAMEENGINE_\GAMEENGINE_\MAIN.CPP
^C:\USERS\SEAN-LI\DOCUMENTS\BITBUCKET\KDU\SEMESTER 7\GAMEENGINE\WEEK 2\GAMEENGINE_\MAIN.CPP
/c /I"C:\Users\Sean-Li\Documents\BitBucket\KDU\Semester 7\GameEngine\OpenSceneGraph-3.0.1-VS10.0.30319-x86-release-12741\include" /I"C:\Users\Sean-Li\Documents\BitBucket\KDU\Semester 7\GameEngine\OpenSceneGraph-3.0.1-VS10.0.30319-x86-debug-12741\include" /ZI /nologo /W3 /WX- /Od /Oy- /D WIN32 /D _DEBUG /D _CONSOLE /D _UNICODE /D UNICODE /Gm /EHsc /RTC1 /MDd /GS /fp:precise /Zc:wchar_t /Zc:forScope /Fo"Debug\\" /Fd"Debug\vc100.pdb" /Gd /TP /analyze- /errorReport:prompt C:\USERS\SEAN-LI\DOCUMENTS\BITBUCKET\KDU\SEMESTER 7\GAMEENGINE\WEEK 2\GAMEENGINE_\MAIN.CPP
^C:\USERS\SEAN-LI\DOCUMENTS\BITBUCKET\KDU\SEMESTER 7\GAMEENGINE\WEEK 2\GAMEENGINE_\WEEK2.CPP
/c /I"C:\Users\Sean-Li\Documents\BitBucket\KDU\Semester 7\GameEngine\OpenSceneGraph-3.0.1-VS10.0.30319-x86-release-12741\include" /I"C:\Users\Sean-Li\Documents\BitBucket\KDU\Semester 7\GameEngine\OpenSceneGraph-3.0.1-VS10.0.30319-x86-debug-12741\include" /ZI /nologo /W3 /WX- /Od /Oy- /D WIN32 /D _DEBUG /D _CONSOLE /D _UNICODE /D UNICODE /Gm /EHsc /RTC1 /MDd /GS /fp:precise /Zc:wchar_t /Zc:forScope /Fo"Debug\\" /Fd"Debug\vc100.pdb" /Gd /TP /analyze- /errorReport:prompt C:\USERS\SEAN-LI\DOCUMENTS\BITBUCKET\KDU\SEMESTER 7\GAMEENGINE\WEEK 2\GAMEENGINE_\WEEK2.CPP
