^C:\USERS\SEAN-LI\DESKTOP\OBSERVER\OBSERVER\OBSERVER\OBSERVER.CPP|C:\USERS\SEAN-LI\DESKTOP\OBSERVER\OBSERVER\OBSERVER\STDAFX.CPP
C:\USERS\SEAN-LI\DESKTOP\OBSERVER\OBSERVER\OBSERVER\DEBUG\VC120.PDB
C:\USERS\SEAN-LI\DESKTOP\OBSERVER\OBSERVER\OBSERVER\DEBUG\VC120.IDB
C:\USERS\SEAN-LI\DESKTOP\OBSERVER\OBSERVER\OBSERVER\DEBUG\OBSERVER.OBJ
C:\USERS\SEAN-LI\DESKTOP\OBSERVER\OBSERVER\OBSERVER\DEBUG\STDAFX.OBJ
^C:\USERS\SEAN-LI\DESKTOP\OBSERVER\OBSERVER\OBSERVER\OBSERVER.CPP
C:\USERS\SEAN-LI\DESKTOP\OBSERVER\OBSERVER\OBSERVER\DEBUG\VC120.PDB
C:\USERS\SEAN-LI\DESKTOP\OBSERVER\OBSERVER\OBSERVER\DEBUG\VC120.IDB
^C:\USERS\SEAN-LI\DESKTOP\OBSERVER\OBSERVER\OBSERVER\STDAFX.CPP
C:\USERS\SEAN-LI\DESKTOP\OBSERVER\OBSERVER\OBSERVER\DEBUG\VC120.PDB
