^C:\USERS\SEAN-LI\DESKTOP\OBSERVER\OBSERVER\OBSERVER\DEBUG\OBSERVER.OBJ|C:\USERS\SEAN-LI\DESKTOP\OBSERVER\OBSERVER\OBSERVER\DEBUG\STDAFX.OBJ
C:\USERS\SEAN-LI\DESKTOP\OBSERVER\OBSERVER\DEBUG\OBSERVER.ILK
C:\USERS\SEAN-LI\DESKTOP\OBSERVER\OBSERVER\DEBUG\OBSERVER.EXE
C:\USERS\SEAN-LI\DESKTOP\OBSERVER\OBSERVER\DEBUG\OBSERVER.PDB
