^C:\USERS\AREA51STUDENT\DOCUMENTS\VISUAL STUDIO 2010\PROJECTS\GAMEENGINE_\GAMEENGINE_\DEBUG\GAMEENGINE_.EXE.INTERMEDIATE.MANIFEST
/nologo /verbose /outputresource:"C:\Users\Area51Student\Documents\Visual Studio 2010\Projects\GameEngine_\Debug\GameEngine_.exe;#1" /manifest Debug\GameEngine_.exe.intermediate.manifest
^C:\USERS\SEAN-LI\DOCUMENTS\BITBUCKET\KDU\SEMESTER 7\GAMEENGINE\GAMEENGINE_\GAMEENGINE_\DEBUG\GAMEENGINE_.EXE.INTERMEDIATE.MANIFEST
/nologo /verbose /outputresource:"C:\Users\Sean-Li\Documents\BitBucket\KDU\Semester 7\GameEngine\GameEngine_\Debug\GameEngine_.exe;#1" /manifest Debug\GameEngine_.exe.intermediate.manifest
^C:\USERS\SEAN-LI\DOCUMENTS\BITBUCKET\KDU\SEMESTER 7\GAMEENGINE\WEEK 2\GAMEENGINE_\DEBUG\GAMEENGINE_.EXE.INTERMEDIATE.MANIFEST
/nologo /verbose /outputresource:"C:\Users\Sean-Li\Documents\BitBucket\KDU\Semester 7\GameEngine\Week 2\Debug\GameEngine_.exe;#1" /manifest Debug\GameEngine_.exe.intermediate.manifest
