^U:\QUEUE\QUEUE\DEBUG\QUEUE.EXE.EMBED.MANIFEST.RES|U:\QUEUE\QUEUE\DEBUG\QUEUE.OBJ|U:\QUEUE\QUEUE\DEBUG\STDAFX.OBJ
C:\PROGRAM FILES\MICROSOFT SDKS\WINDOWS\V7.0A\LIB\KERNEL32.LIB
C:\PROGRAM FILES\MICROSOFT SDKS\WINDOWS\V7.0A\LIB\USER32.LIB
C:\PROGRAM FILES\MICROSOFT SDKS\WINDOWS\V7.0A\LIB\GDI32.LIB
C:\PROGRAM FILES\MICROSOFT SDKS\WINDOWS\V7.0A\LIB\WINSPOOL.LIB
C:\PROGRAM FILES\MICROSOFT SDKS\WINDOWS\V7.0A\LIB\COMDLG32.LIB
C:\PROGRAM FILES\MICROSOFT SDKS\WINDOWS\V7.0A\LIB\ADVAPI32.LIB
C:\PROGRAM FILES\MICROSOFT SDKS\WINDOWS\V7.0A\LIB\SHELL32.LIB
C:\PROGRAM FILES\MICROSOFT SDKS\WINDOWS\V7.0A\LIB\OLE32.LIB
C:\PROGRAM FILES\MICROSOFT SDKS\WINDOWS\V7.0A\LIB\OLEAUT32.LIB
C:\PROGRAM FILES\MICROSOFT SDKS\WINDOWS\V7.0A\LIB\UUID.LIB
C:\PROGRAM FILES\MICROSOFT SDKS\WINDOWS\V7.0A\LIB\ODBC32.LIB
C:\PROGRAM FILES\MICROSOFT SDKS\WINDOWS\V7.0A\LIB\ODBCCP32.LIB
U:\QUEUE\QUEUE\DEBUG\QUEUE.EXE.EMBED.MANIFEST.RES
U:\QUEUE\QUEUE\DEBUG\QUEUE.OBJ
U:\QUEUE\QUEUE\DEBUG\STDAFX.OBJ
C:\WINDOWS\SYSTEM32\TZRES.DLL
U:\QUEUE\DEBUG\QUEUE.ILK
U:\QUEUE\DEBUG\QUEUE.EXE
U:\QUEUE\DEBUG\QUEUE.PDB
C:\WINDOWS\GLOBALIZATION\SORTING\SORTDEFAULT.NLS
C:\PROGRAM FILES\MICROSOFT VISUAL STUDIO 10.0\VC\LIB\MSVCPRTD.LIB
C:\PROGRAM FILES\MICROSOFT VISUAL STUDIO 10.0\VC\LIB\MSVCRTD.LIB
C:\PROGRAM FILES\MICROSOFT VISUAL STUDIO 10.0\VC\LIB\OLDNAMES.LIB
C:\PROGRAM FILES\MICROSOFT VISUAL STUDIO 10.0\VC\BIN\CVTRES.EXE
C:\PROGRAM FILES\MICROSOFT VISUAL STUDIO 10.0\VC\BIN\LINK.EXE
C:\WINDOWS\SYSTEM32\RSAENH.DLL
^C:\USERS\SEAN-LI MURMANN\GOOGLE DRIVE\KDU\SEMESTER 3\DATASTRUCTURES & ALGORITHMS\WEEK 2 (STACKS,QUEUES)\QUEUE\QUEUE\DEBUG\QUEUE.EXE.EMBED.MANIFEST.RES|C:\USERS\SEAN-LI MURMANN\GOOGLE DRIVE\KDU\SEMESTER 3\DATASTRUCTURES & ALGORITHMS\WEEK 2 (STACKS,QUEUES)\QUEUE\QUEUE\DEBUG\QUEUE.OBJ|C:\USERS\SEAN-LI MURMANN\GOOGLE DRIVE\KDU\SEMESTER 3\DATASTRUCTURES & ALGORITHMS\WEEK 2 (STACKS,QUEUES)\QUEUE\QUEUE\DEBUG\STDAFX.OBJ
C:\PROGRAM FILES (X86)\MICROSOFT SDKS\WINDOWS\V7.0A\LIB\KERNEL32.LIB
C:\PROGRAM FILES (X86)\MICROSOFT SDKS\WINDOWS\V7.0A\LIB\USER32.LIB
C:\PROGRAM FILES (X86)\MICROSOFT SDKS\WINDOWS\V7.0A\LIB\GDI32.LIB
C:\PROGRAM FILES (X86)\MICROSOFT SDKS\WINDOWS\V7.0A\LIB\WINSPOOL.LIB
C:\PROGRAM FILES (X86)\MICROSOFT SDKS\WINDOWS\V7.0A\LIB\COMDLG32.LIB
C:\PROGRAM FILES (X86)\MICROSOFT SDKS\WINDOWS\V7.0A\LIB\ADVAPI32.LIB
C:\PROGRAM FILES (X86)\MICROSOFT SDKS\WINDOWS\V7.0A\LIB\SHELL32.LIB
C:\PROGRAM FILES (X86)\MICROSOFT SDKS\WINDOWS\V7.0A\LIB\OLE32.LIB
C:\PROGRAM FILES (X86)\MICROSOFT SDKS\WINDOWS\V7.0A\LIB\OLEAUT32.LIB
C:\PROGRAM FILES (X86)\MICROSOFT SDKS\WINDOWS\V7.0A\LIB\UUID.LIB
C:\PROGRAM FILES (X86)\MICROSOFT SDKS\WINDOWS\V7.0A\LIB\ODBC32.LIB
C:\PROGRAM FILES (X86)\MICROSOFT SDKS\WINDOWS\V7.0A\LIB\ODBCCP32.LIB
C:\USERS\SEAN-LI MURMANN\GOOGLE DRIVE\KDU\SEMESTER 3\DATASTRUCTURES & ALGORITHMS\WEEK 2 (STACKS,QUEUES)\QUEUE\QUEUE\DEBUG\QUEUE.EXE.EMBED.MANIFEST.RES
C:\USERS\SEAN-LI MURMANN\GOOGLE DRIVE\KDU\SEMESTER 3\DATASTRUCTURES & ALGORITHMS\WEEK 2 (STACKS,QUEUES)\QUEUE\QUEUE\DEBUG\QUEUE.OBJ
C:\USERS\SEAN-LI MURMANN\GOOGLE DRIVE\KDU\SEMESTER 3\DATASTRUCTURES & ALGORITHMS\WEEK 2 (STACKS,QUEUES)\QUEUE\QUEUE\DEBUG\STDAFX.OBJ
C:\WINDOWS\SYSTEM32\TZRES.DLL
C:\USERS\SEAN-LI MURMANN\GOOGLE DRIVE\KDU\SEMESTER 3\DATASTRUCTURES & ALGORITHMS\WEEK 2 (STACKS,QUEUES)\QUEUE\DEBUG\QUEUE.ILK
C:\USERS\SEAN-LI MURMANN\GOOGLE DRIVE\KDU\SEMESTER 3\DATASTRUCTURES & ALGORITHMS\WEEK 2 (STACKS,QUEUES)\QUEUE\DEBUG\QUEUE.EXE
C:\USERS\SEAN-LI MURMANN\GOOGLE DRIVE\KDU\SEMESTER 3\DATASTRUCTURES & ALGORITHMS\WEEK 2 (STACKS,QUEUES)\QUEUE\DEBUG\QUEUE.PDB
C:\WINDOWS\GLOBALIZATION\SORTING\SORTDEFAULT.NLS
C:\PROGRAM FILES (X86)\MICROSOFT VISUAL STUDIO 10.0\VC\LIB\MSVCPRTD.LIB
C:\PROGRAM FILES (X86)\MICROSOFT VISUAL STUDIO 10.0\VC\LIB\MSVCRTD.LIB
C:\PROGRAM FILES (X86)\MICROSOFT VISUAL STUDIO 10.0\VC\LIB\OLDNAMES.LIB
^F:\KDU\SEMESTER 3\DATASTRUCTURES & ALGORITHMS\WEEK 2 (STACKS,QUEUES)\QUEUE\QUEUE\DEBUG\QUEUE.EXE.EMBED.MANIFEST.RES|F:\KDU\SEMESTER 3\DATASTRUCTURES & ALGORITHMS\WEEK 2 (STACKS,QUEUES)\QUEUE\QUEUE\DEBUG\QUEUE.OBJ|F:\KDU\SEMESTER 3\DATASTRUCTURES & ALGORITHMS\WEEK 2 (STACKS,QUEUES)\QUEUE\QUEUE\DEBUG\STDAFX.OBJ
C:\PROGRAM FILES (X86)\MICROSOFT SDKS\WINDOWS\V7.0A\LIB\KERNEL32.LIB
C:\PROGRAM FILES (X86)\MICROSOFT SDKS\WINDOWS\V7.0A\LIB\USER32.LIB
C:\PROGRAM FILES (X86)\MICROSOFT SDKS\WINDOWS\V7.0A\LIB\GDI32.LIB
C:\PROGRAM FILES (X86)\MICROSOFT SDKS\WINDOWS\V7.0A\LIB\WINSPOOL.LIB
C:\PROGRAM FILES (X86)\MICROSOFT SDKS\WINDOWS\V7.0A\LIB\COMDLG32.LIB
C:\PROGRAM FILES (X86)\MICROSOFT SDKS\WINDOWS\V7.0A\LIB\ADVAPI32.LIB
C:\PROGRAM FILES (X86)\MICROSOFT SDKS\WINDOWS\V7.0A\LIB\SHELL32.LIB
C:\PROGRAM FILES (X86)\MICROSOFT SDKS\WINDOWS\V7.0A\LIB\OLE32.LIB
C:\PROGRAM FILES (X86)\MICROSOFT SDKS\WINDOWS\V7.0A\LIB\OLEAUT32.LIB
C:\PROGRAM FILES (X86)\MICROSOFT SDKS\WINDOWS\V7.0A\LIB\UUID.LIB
C:\PROGRAM FILES (X86)\MICROSOFT SDKS\WINDOWS\V7.0A\LIB\ODBC32.LIB
C:\PROGRAM FILES (X86)\MICROSOFT SDKS\WINDOWS\V7.0A\LIB\ODBCCP32.LIB
F:\KDU\SEMESTER 3\DATASTRUCTURES & ALGORITHMS\WEEK 2 (STACKS,QUEUES)\QUEUE\QUEUE\DEBUG\QUEUE.EXE.EMBED.MANIFEST.RES
F:\KDU\SEMESTER 3\DATASTRUCTURES & ALGORITHMS\WEEK 2 (STACKS,QUEUES)\QUEUE\QUEUE\DEBUG\QUEUE.OBJ
F:\KDU\SEMESTER 3\DATASTRUCTURES & ALGORITHMS\WEEK 2 (STACKS,QUEUES)\QUEUE\QUEUE\DEBUG\STDAFX.OBJ
C:\WINDOWS\SYSTEM32\TZRES.DLL
F:\KDU\SEMESTER 3\DATASTRUCTURES & ALGORITHMS\WEEK 2 (STACKS,QUEUES)\QUEUE\DEBUG\QUEUE.EXE
F:\KDU\SEMESTER 3\DATASTRUCTURES & ALGORITHMS\WEEK 2 (STACKS,QUEUES)\QUEUE\DEBUG\QUEUE.PDB
C:\WINDOWS\GLOBALIZATION\SORTING\SORTDEFAULT.NLS
C:\PROGRAM FILES (X86)\MICROSOFT VISUAL STUDIO 10.0\VC\LIB\MSVCPRTD.LIB
C:\PROGRAM FILES (X86)\MICROSOFT VISUAL STUDIO 10.0\VC\LIB\MSVCRTD.LIB
C:\PROGRAM FILES (X86)\MICROSOFT VISUAL STUDIO 10.0\VC\LIB\OLDNAMES.LIB
C:\PROGRAM FILES (X86)\MICROSOFT VISUAL STUDIO 10.0\VC\BIN\LINK.EXE
C:\WINDOWS\SYSTEM32\RSAENH.DLL
C:\PROGRAM FILES (X86)\MICROSOFT VISUAL STUDIO 10.0\VC\BIN\CVTRES.EXE
