^U:\QUEUE\QUEUE\DEBUG\QUEUE_MANIFEST.RC
/nologo /fo"Debug\Queue.exe.embed.manifest.res" Debug\Queue_manifest.rc /nologo /fo"Debug\Queue.exe.embed.manifest.res" U:\QUEUE\QUEUE\DEBUG\QUEUE_MANIFEST.RC
^C:\USERS\SEAN-LI MURMANN\GOOGLE DRIVE\KDU\SEMESTER 3\DATASTRUCTURES & ALGORITHMS\WEEK 2 (STACKS,QUEUES)\QUEUE\QUEUE\DEBUG\QUEUE_MANIFEST.RC
/nologo /fo"Debug\Queue.exe.embed.manifest.res" Debug\Queue_manifest.rc /nologo /fo"Debug\Queue.exe.embed.manifest.res" C:\USERS\SEAN-LI MURMANN\GOOGLE DRIVE\KDU\SEMESTER 3\DATASTRUCTURES & ALGORITHMS\WEEK 2 (STACKS,QUEUES)\QUEUE\QUEUE\DEBUG\QUEUE_MANIFEST.RC
^F:\KDU\SEMESTER 3\DATASTRUCTURES & ALGORITHMS\WEEK 2 (STACKS,QUEUES)\QUEUE\QUEUE\DEBUG\QUEUE_MANIFEST.RC
/nologo /fo"Debug\Queue.exe.embed.manifest.res" Debug\Queue_manifest.rc /nologo /fo"Debug\Queue.exe.embed.manifest.res" F:\KDU\SEMESTER 3\DATASTRUCTURES & ALGORITHMS\WEEK 2 (STACKS,QUEUES)\QUEUE\QUEUE\DEBUG\QUEUE_MANIFEST.RC
