^U:\QUEUE\QUEUE\DEBUG\QUEUE_MANIFEST.RC
U:\QUEUE\QUEUE\DEBUG\QUEUE.EXE.EMBED.MANIFEST.RES
^C:\USERS\SEAN-LI MURMANN\GOOGLE DRIVE\KDU\SEMESTER 3\DATASTRUCTURES & ALGORITHMS\WEEK 2 (STACKS,QUEUES)\QUEUE\QUEUE\DEBUG\QUEUE_MANIFEST.RC
C:\USERS\SEAN-LI MURMANN\GOOGLE DRIVE\KDU\SEMESTER 3\DATASTRUCTURES & ALGORITHMS\WEEK 2 (STACKS,QUEUES)\QUEUE\QUEUE\DEBUG\QUEUE.EXE.EMBED.MANIFEST.RES
^F:\KDU\SEMESTER 3\DATASTRUCTURES & ALGORITHMS\WEEK 2 (STACKS,QUEUES)\QUEUE\QUEUE\DEBUG\QUEUE_MANIFEST.RC
F:\KDU\SEMESTER 3\DATASTRUCTURES & ALGORITHMS\WEEK 2 (STACKS,QUEUES)\QUEUE\QUEUE\DEBUG\QUEUE.EXE.EMBED.MANIFEST.RES
