^C:\USERS\0109835\DOCUMENTS\VISUAL STUDIO 2010\PROJECTS\STACKQUEUE EXERCISE\STACKQUEUE EXERCISE\DEBUG\STACKQUEUE EXERCISE.EXE.INTERMEDIATE.MANIFEST
/nologo /verbose /out:"Debug\StackQueue Exercise.exe.embed.manifest" /manifest "Debug\StackQueue Exercise.exe.intermediate.manifest"
^C:\USERS\SEAN-LI MURMANN\GOOGLE DRIVE\KDU\SEMESTER 3\DATASTRUCTURES & ALGORITHMS\WEEK 2 (STACKS,QUEUES)\STACKQUEUE EXERCISE\STACKQUEUE EXERCISE\DEBUG\STACKQUEUE EXERCISE.EXE.INTERMEDIATE.MANIFEST
/nologo /verbose /out:"Debug\StackQueue Exercise.exe.embed.manifest" /manifest "Debug\StackQueue Exercise.exe.intermediate.manifest"
^C:\USERS\SEAN-LI MURMANN\GOOGLE DRIVE\KDU\SEMESTER 3\DATASTRUCTURES & ALGORITHMS\WEEK 2 (STACKS,QUEUES)\STACKQUEUE EXERCISE2\STACKQUEUE EXERCISE\DEBUG\STACKQUEUE EXERCISE.EXE.INTERMEDIATE.MANIFEST
/nologo /verbose /out:"Debug\StackQueue Exercise.exe.embed.manifest" /manifest "Debug\StackQueue Exercise.exe.intermediate.manifest"
