^C:\USERS\0109835\DOCUMENTS\VISUAL STUDIO 2010\PROJECTS\STACKQUEUE EXERCISE\STACKQUEUE EXERCISE\DEBUG\STACKQUEUE EXERCISE_MANIFEST.RC
/nologo /fo"Debug\StackQueue Exercise.exe.embed.manifest.res" "Debug\StackQueue Exercise_manifest.rc" /nologo /fo"Debug\StackQueue Exercise.exe.embed.manifest.res" C:\USERS\0109835\DOCUMENTS\VISUAL STUDIO 2010\PROJECTS\STACKQUEUE EXERCISE\STACKQUEUE EXERCISE\DEBUG\STACKQUEUE EXERCISE_MANIFEST.RC
^C:\USERS\SEAN-LI MURMANN\GOOGLE DRIVE\KDU\SEMESTER 3\DATASTRUCTURES & ALGORITHMS\WEEK 2 (STACKS,QUEUES)\STACKQUEUE EXERCISE\STACKQUEUE EXERCISE\DEBUG\STACKQUEUE EXERCISE_MANIFEST.RC
/nologo /fo"Debug\StackQueue Exercise.exe.embed.manifest.res" "Debug\StackQueue Exercise_manifest.rc" /nologo /fo"Debug\StackQueue Exercise.exe.embed.manifest.res" C:\USERS\SEAN-LI MURMANN\GOOGLE DRIVE\KDU\SEMESTER 3\DATASTRUCTURES & ALGORITHMS\WEEK 2 (STACKS,QUEUES)\STACKQUEUE EXERCISE\STACKQUEUE EXERCISE\DEBUG\STACKQUEUE EXERCISE_MANIFEST.RC
^C:\USERS\SEAN-LI MURMANN\GOOGLE DRIVE\KDU\SEMESTER 3\DATASTRUCTURES & ALGORITHMS\WEEK 2 (STACKS,QUEUES)\STACKQUEUE EXERCISE2\STACKQUEUE EXERCISE\DEBUG\STACKQUEUE EXERCISE_MANIFEST.RC
/nologo /fo"Debug\StackQueue Exercise.exe.embed.manifest.res" "Debug\StackQueue Exercise_manifest.rc" /nologo /fo"Debug\StackQueue Exercise.exe.embed.manifest.res" C:\USERS\SEAN-LI MURMANN\GOOGLE DRIVE\KDU\SEMESTER 3\DATASTRUCTURES & ALGORITHMS\WEEK 2 (STACKS,QUEUES)\STACKQUEUE EXERCISE2\STACKQUEUE EXERCISE\DEBUG\STACKQUEUE EXERCISE_MANIFEST.RC
