^C:\USERS\SEAN-LI\DOCUMENTS\GITHUB\KDU_PROJECTS\SEMESTER 6\3D PROGRAMMING\WEEK 1\SHADER_HELLOWORLD\SHADER_HELLOWORLD\DEMO.C
C:\USERS\SEAN-LI\DOCUMENTS\GITHUB\KDU_PROJECTS\SEMESTER 6\3D PROGRAMMING\WEEK 1\SHADER_HELLOWORLD\SHADER_HELLOWORLD\DEBUG\VC140.PDB
C:\USERS\SEAN-LI\DOCUMENTS\GITHUB\KDU_PROJECTS\SEMESTER 6\3D PROGRAMMING\WEEK 1\SHADER_HELLOWORLD\SHADER_HELLOWORLD\DEBUG\VC140.IDB
C:\USERS\SEAN-LI\DOCUMENTS\GITHUB\KDU_PROJECTS\SEMESTER 6\3D PROGRAMMING\WEEK 1\SHADER_HELLOWORLD\SHADER_HELLOWORLD\DEBUG\DEMO.OBJ
^C:\USERS\SEAN-LI\DOCUMENTS\GITHUB\KDU_PROJECTS\SEMESTER 6\3D PROGRAMMING\WEEK 2\SHADER_HELLOWORLD\SHADER_HELLOWORLD\DEMO.C
C:\USERS\SEAN-LI\DOCUMENTS\GITHUB\KDU_PROJECTS\SEMESTER 6\3D PROGRAMMING\WEEK 2\SHADER_HELLOWORLD\SHADER_HELLOWORLD\DEBUG\VC140.PDB
C:\USERS\SEAN-LI\DOCUMENTS\GITHUB\KDU_PROJECTS\SEMESTER 6\3D PROGRAMMING\WEEK 2\SHADER_HELLOWORLD\SHADER_HELLOWORLD\DEBUG\VC140.IDB
C:\USERS\SEAN-LI\DOCUMENTS\GITHUB\KDU_PROJECTS\SEMESTER 6\3D PROGRAMMING\WEEK 2\SHADER_HELLOWORLD\SHADER_HELLOWORLD\DEBUG\DEMO.OBJ
^C:\USERS\SEAN-LI\DOCUMENTS\GITHUB\KDU_PROJECTS\SEMESTER 6\3D PROGRAMMING\WEEK 2\SHADER_HELLOWORLD\SHADER_HELLOWORLD\DEMO.CPP
C:\USERS\SEAN-LI\DOCUMENTS\GITHUB\KDU_PROJECTS\SEMESTER 6\3D PROGRAMMING\WEEK 2\SHADER_HELLOWORLD\SHADER_HELLOWORLD\DEBUG\VC140.PDB
C:\USERS\SEAN-LI\DOCUMENTS\GITHUB\KDU_PROJECTS\SEMESTER 6\3D PROGRAMMING\WEEK 2\SHADER_HELLOWORLD\SHADER_HELLOWORLD\DEBUG\VC140.IDB
C:\USERS\SEAN-LI\DOCUMENTS\GITHUB\KDU_PROJECTS\SEMESTER 6\3D PROGRAMMING\WEEK 2\SHADER_HELLOWORLD\SHADER_HELLOWORLD\DEBUG\DEMO.OBJ
^C:\USERS\SEAN-LI\DOCUMENTS\GITHUB\KDU_PROJECTS\SEMESTER 6\3D PROGRAMMING\WEEK 3\SHADER_HELLOWORLD\SHADER_HELLOWORLD\DEMO.CPP
C:\USERS\SEAN-LI\DOCUMENTS\GITHUB\KDU_PROJECTS\SEMESTER 6\3D PROGRAMMING\WEEK 3\SHADER_HELLOWORLD\SHADER_HELLOWORLD\DEBUG\VC140.PDB
C:\USERS\SEAN-LI\DOCUMENTS\GITHUB\KDU_PROJECTS\SEMESTER 6\3D PROGRAMMING\WEEK 3\SHADER_HELLOWORLD\SHADER_HELLOWORLD\DEBUG\VC140.IDB
C:\USERS\SEAN-LI\DOCUMENTS\GITHUB\KDU_PROJECTS\SEMESTER 6\3D PROGRAMMING\WEEK 3\SHADER_HELLOWORLD\SHADER_HELLOWORLD\DEBUG\DEMO.OBJ
